%!PS-Adobe-3.0 EPSF-3.0
%%Creator: MATLAB, The MathWorks, Inc. Version 7.12.0.635 (R2011a). Operating System: Microsoft Windows 7.
%%Title: C:\Users\prennert\phd\courses\sl\courseworks\sl1\code\5a.eps
%%CreationDate: 11/17/2011  17:20:37
%%DocumentNeededFonts: Helvetica
%%DocumentProcessColors: Cyan Magenta Yellow Black
%%LanguageLevel: 2
%%Pages: 1
%%BoundingBox:    87   262   507   578
%%EndComments

%%BeginProlog
% MathWorks dictionary
/MathWorks 160 dict begin
% definition operators
/bdef {bind def} bind def
/ldef {load def} bind def
/xdef {exch def} bdef
/xstore {exch store} bdef
% operator abbreviations
/c  /clip ldef
/cc /concat ldef
/cp /closepath ldef
/gr /grestore ldef
/gs /gsave ldef
/mt /moveto ldef
/np /newpath ldef
/cm /currentmatrix ldef
/sm /setmatrix ldef
/rm /rmoveto ldef
/rl /rlineto ldef
/s {show newpath} bdef
/sc {setcmykcolor} bdef
/sr /setrgbcolor ldef
/sg /setgray ldef
/w /setlinewidth ldef
/j /setlinejoin ldef
/cap /setlinecap ldef
/rc {rectclip} bdef
/rf {rectfill} bdef
% page state control
/pgsv () def
/bpage {/pgsv save def} bdef
/epage {pgsv restore} bdef
/bplot /gsave ldef
/eplot {stroke grestore} bdef
% orientation switch
/portraitMode 0 def /landscapeMode 1 def /rotateMode 2 def
% coordinate system mappings
/dpi2point 0 def
% font control
/FontSize 0 def
/FMS {/FontSize xstore findfont [FontSize 0 0 FontSize neg 0 0]
  makefont setfont} bdef
/ISOLatin1Encoding where {pop /WindowsLatin1Encoding 256 array bdef
ISOLatin1Encoding WindowsLatin1Encoding copy pop
/.notdef/.notdef/quotesinglbase/florin/quotedblbase/ellipsis/dagger
/daggerdbl/circumflex/perthousand/Scaron/guilsinglleft/OE/.notdef/.notdef
/.notdef/.notdef/quoteleft/quoteright/quotedblleft/quotedblright/bullet
/endash/emdash/tilde/trademark/scaron/guilsinglright/oe/.notdef/.notdef
/Ydieresis WindowsLatin1Encoding 128 32 getinterval astore pop}
{/WindowsLatin1Encoding StandardEncoding bdef} ifelse
/reencode {exch dup where {pop load} {pop StandardEncoding} ifelse
  exch dup 3 1 roll findfont dup length dict begin
  { 1 index /FID ne {def}{pop pop} ifelse } forall
  /Encoding exch def currentdict end definefont pop} bdef
/isroman {findfont /CharStrings get /Agrave known} bdef
/FMSR {3 1 roll 1 index dup isroman {reencode} {pop pop} ifelse
  exch FMS} bdef
/csm {1 dpi2point div -1 dpi2point div scale neg translate
 dup landscapeMode eq {pop -90 rotate}
  {rotateMode eq {90 rotate} if} ifelse} bdef
% line types: solid, dotted, dashed, dotdash
/SO { [] 0 setdash } bdef
/DO { [.5 dpi2point mul 4 dpi2point mul] 0 setdash } bdef
/DA { [6 dpi2point mul] 0 setdash } bdef
/DD { [.5 dpi2point mul 4 dpi2point mul 6 dpi2point mul 4
  dpi2point mul] 0 setdash } bdef
% macros for lines and objects
/L {lineto stroke} bdef
/MP {3 1 roll moveto 1 sub {rlineto} repeat} bdef
/AP {{rlineto} repeat} bdef
/PDlw -1 def
/W {/PDlw currentlinewidth def setlinewidth} def
/PP {closepath eofill} bdef
/DP {closepath stroke} bdef
/MR {4 -2 roll moveto dup  0 exch rlineto exch 0 rlineto
  neg 0 exch rlineto closepath} bdef
/FR {MR stroke} bdef
/PR {MR fill} bdef
/L1i {{currentfile picstr readhexstring pop} image} bdef
/tMatrix matrix def
/MakeOval {newpath tMatrix currentmatrix pop translate scale
0 0 1 0 360 arc tMatrix setmatrix} bdef
/FO {MakeOval stroke} bdef
/PO {MakeOval fill} bdef
/PD {currentlinewidth 2 div 0 360 arc fill
   PDlw -1 eq not {PDlw w /PDlw -1 def} if} def
/FA {newpath tMatrix currentmatrix pop translate scale
  0 0 1 5 -2 roll arc tMatrix setmatrix stroke} bdef
/PA {newpath tMatrix currentmatrix pop	translate 0 0 moveto scale
  0 0 1 5 -2 roll arc closepath tMatrix setmatrix fill} bdef
/FAn {newpath tMatrix currentmatrix pop translate scale
  0 0 1 5 -2 roll arcn tMatrix setmatrix stroke} bdef
/PAn {newpath tMatrix currentmatrix pop translate 0 0 moveto scale
  0 0 1 5 -2 roll arcn closepath tMatrix setmatrix fill} bdef
/vradius 0 def /hradius 0 def /lry 0 def
/lrx 0 def /uly 0 def /ulx 0 def /rad 0 def
/MRR {/vradius xdef /hradius xdef /lry xdef /lrx xdef /uly xdef
  /ulx xdef newpath tMatrix currentmatrix pop ulx hradius add uly
  vradius add translate hradius vradius scale 0 0 1 180 270 arc 
  tMatrix setmatrix lrx hradius sub uly vradius add translate
  hradius vradius scale 0 0 1 270 360 arc tMatrix setmatrix
  lrx hradius sub lry vradius sub translate hradius vradius scale
  0 0 1 0 90 arc tMatrix setmatrix ulx hradius add lry vradius sub
  translate hradius vradius scale 0 0 1 90 180 arc tMatrix setmatrix
  closepath} bdef
/FRR {MRR stroke } bdef
/PRR {MRR fill } bdef
/MlrRR {/lry xdef /lrx xdef /uly xdef /ulx xdef /rad lry uly sub 2 div def
  newpath tMatrix currentmatrix pop ulx rad add uly rad add translate
  rad rad scale 0 0 1 90 270 arc tMatrix setmatrix lrx rad sub lry rad
  sub translate rad rad scale 0 0 1 270 90 arc tMatrix setmatrix
  closepath} bdef
/FlrRR {MlrRR stroke } bdef
/PlrRR {MlrRR fill } bdef
/MtbRR {/lry xdef /lrx xdef /uly xdef /ulx xdef /rad lrx ulx sub 2 div def
  newpath tMatrix currentmatrix pop ulx rad add uly rad add translate
  rad rad scale 0 0 1 180 360 arc tMatrix setmatrix lrx rad sub lry rad
  sub translate rad rad scale 0 0 1 0 180 arc tMatrix setmatrix
  closepath} bdef
/FtbRR {MtbRR stroke } bdef
/PtbRR {MtbRR fill } bdef
/stri 6 array def /dtri 6 array def
/smat 6 array def /dmat 6 array def
/tmat1 6 array def /tmat2 6 array def /dif 3 array def
/asub {/ind2 exch def /ind1 exch def dup dup
  ind1 get exch ind2 get sub exch } bdef
/tri_to_matrix {
  2 0 asub 3 1 asub 4 0 asub 5 1 asub
  dup 0 get exch 1 get 7 -1 roll astore } bdef
/compute_transform {
  dmat dtri tri_to_matrix tmat1 invertmatrix 
  smat stri tri_to_matrix tmat2 concatmatrix } bdef
/ds {stri astore pop} bdef
/dt {dtri astore pop} bdef
/db {2 copy /cols xdef /rows xdef mul dup 3 mul string
  currentfile 
  3 index 0 eq {/ASCIIHexDecode filter}
  {/ASCII85Decode filter 3 index 2 eq {/RunLengthDecode filter} if }
  ifelse exch readstring pop
  dup 0 3 index getinterval /rbmap xdef
  dup 2 index dup getinterval /gbmap xdef
  1 index dup 2 mul exch getinterval /bbmap xdef pop pop}bdef
/it {gs np dtri aload pop moveto lineto lineto cp c
  cols rows 8 compute_transform 
  rbmap gbmap bbmap true 3 colorimage gr}bdef
/il {newpath moveto lineto stroke}bdef
currentdict end def
%%EndProlog

%%BeginSetup
MathWorks begin

0 cap

end
%%EndSetup

%%Page: 1 1
%%BeginPageSetup
%%PageBoundingBox:    87   262   507   578
MathWorks begin
bpage
%%EndPageSetup

%%BeginObject: obj1
bplot

/dpi2point 12 def
portraitMode 1044 6936 csm

    0     0  5045  3782 rc
86 dict begin %Colortable dictionary
/c0 { 0.000000 0.000000 0.000000 sr} bdef
/c1 { 1.000000 1.000000 1.000000 sr} bdef
/c2 { 0.900000 0.000000 0.000000 sr} bdef
/c3 { 0.000000 0.820000 0.000000 sr} bdef
/c4 { 0.000000 0.000000 0.800000 sr} bdef
/c5 { 0.910000 0.820000 0.320000 sr} bdef
/c6 { 1.000000 0.260000 0.820000 sr} bdef
/c7 { 0.000000 0.820000 0.820000 sr} bdef
c0
1 j
1 sg
   0    0 5046 3783 rf
6 w
0 3082 3910 0 0 -3082 656 3366 4 MP
PP
-3910 0 0 3082 3910 0 0 -3082 656 3366 5 MP stroke
4 w
DO
SO
6 w
0 sg
 656 3366 mt 4566 3366 L
 656 3366 mt  656  284 L
 656 3366 mt  656 3326 L
%%IncludeResource: font Helvetica
/Helvetica /WindowsLatin1Encoding 120 FMSR

 553 3511 mt 
(-6) s
1090 3366 mt 1090 3326 L
 987 3511 mt 
(-5) s
1524 3366 mt 1524 3326 L
1421 3511 mt 
(-4) s
1959 3366 mt 1959 3326 L
1856 3511 mt 
(-3) s
2393 3366 mt 2393 3326 L
2290 3511 mt 
(-2) s
2828 3366 mt 2828 3326 L
2725 3511 mt 
(-1) s
3262 3366 mt 3262 3326 L
3229 3511 mt 
(0) s
3697 3366 mt 3697 3326 L
3664 3511 mt 
(1) s
4131 3366 mt 4131 3326 L
4098 3511 mt 
(2) s
4566 3366 mt 4566 3326 L
4533 3511 mt 
(3) s
 656 3366 mt  695 3366 L
 555 3410 mt 
(0) s
 656 3023 mt  695 3023 L
 555 3067 mt 
(1) s
 656 2681 mt  695 2681 L
 555 2725 mt 
(2) s
 656 2338 mt  695 2338 L
 555 2382 mt 
(3) s
 656 1996 mt  695 1996 L
 555 2040 mt 
(4) s
 656 1653 mt  695 1653 L
 555 1697 mt 
(5) s
 656 1311 mt  695 1311 L
 555 1355 mt 
(6) s
 656  968 mt  695  968 L
 555 1012 mt 
(7) s
 656  626 mt  695  626 L
 555  670 mt 
(8) s
 656  284 mt  695  284 L
 555  328 mt 
(9) s
1669  189 mt 
(80 training samples: gamma = 10) s
%%IncludeResource: font Helvetica
/Helvetica /WindowsLatin1Encoding 96 FMSR

3439  129 mt 
(-) s
%%IncludeResource: font Helvetica
/Helvetica /WindowsLatin1Encoding 120 FMSR

3495  189 mt 
(1) s
gs 656 284 3911 3083 rc
gr

/c8 { 0.000000 0.000000 1.000000 sr} bdef
c8
 620 3038 mt  692 3038 L
 656 3002 mt  656 3074 L
1054 3038 mt 1126 3038 L
1090 3002 mt 1090 3074 L
1488 3038 mt 1560 3038 L
1524 3002 mt 1524 3074 L
1923 3038 mt 1995 3038 L
1959 3002 mt 1959 3074 L
2357 3038 mt 2429 3038 L
2393 3002 mt 2393 3074 L
2792 3015 mt 2864 3015 L
2828 2979 mt 2828 3051 L
3226 2482 mt 3298 2482 L
3262 2446 mt 3262 2518 L
3661 1403 mt 3733 1403 L
3697 1367 mt 3697 1439 L
4095 1126 mt 4167 1126 L
4131 1090 mt 4131 1162 L
4530 1094 mt 4602 1094 L
4566 1058 mt 4566 1130 L
 631 3013 mt  681 3063 L
 681 3013 mt  631 3063 L
1065 3013 mt 1115 3063 L
1115 3013 mt 1065 3063 L
1499 3013 mt 1549 3063 L
1549 3013 mt 1499 3063 L
1934 3013 mt 1984 3063 L
1984 3013 mt 1934 3063 L
2368 3013 mt 2418 3063 L
2418 3013 mt 2368 3063 L
2803 2990 mt 2853 3040 L
2853 2990 mt 2803 3040 L
3237 2457 mt 3287 2507 L
3287 2457 mt 3237 2507 L
3672 1378 mt 3722 1428 L
3722 1378 mt 3672 1428 L
4106 1101 mt 4156 1151 L
4156 1101 mt 4106 1151 L
4541 1069 mt 4591 1119 L
4591 1069 mt 4541 1119 L
gs 656 284 3911 3083 rc
gr

/c9 { 1.000000 0.000000 0.000000 sr} bdef
c9
 620 3089 mt  692 3089 L
 656 3053 mt  656 3125 L
1054 3089 mt 1126 3089 L
1090 3053 mt 1090 3125 L
1488 3089 mt 1560 3089 L
1524 3053 mt 1524 3125 L
1923 3089 mt 1995 3089 L
1959 3053 mt 1959 3125 L
2357 3093 mt 2429 3093 L
2393 3057 mt 2393 3129 L
2792 3098 mt 2864 3098 L
2828 3062 mt 2828 3134 L
3226 2539 mt 3298 2539 L
3262 2503 mt 3262 2575 L
3661 1412 mt 3733 1412 L
3697 1376 mt 3697 1448 L
4095 1138 mt 4167 1138 L
4131 1102 mt 4131 1174 L
4530 1107 mt 4602 1107 L
4566 1071 mt 4566 1143 L
 631 3064 mt  681 3114 L
 681 3064 mt  631 3114 L
1065 3064 mt 1115 3114 L
1115 3064 mt 1065 3114 L
1499 3064 mt 1549 3114 L
1549 3064 mt 1499 3114 L
1934 3064 mt 1984 3114 L
1984 3064 mt 1934 3114 L
2368 3068 mt 2418 3118 L
2418 3068 mt 2368 3118 L
2803 3073 mt 2853 3123 L
2853 3073 mt 2803 3123 L
3237 2514 mt 3287 2564 L
3287 2514 mt 3237 2564 L
3672 1387 mt 3722 1437 L
3722 1387 mt 3672 1437 L
4106 1113 mt 4156 1163 L
4156 1113 mt 4106 1163 L
4541 1082 mt 4591 1132 L
4591 1082 mt 4541 1132 L
gs 656 284 3911 3083 rc
gr

/c10 { 1.000000 0.000000 1.000000 sr} bdef
c10
 620 2964 mt  692 2964 L
 656 2928 mt  656 3000 L
1054 2964 mt 1126 2964 L
1090 2928 mt 1090 3000 L
1488 2964 mt 1560 2964 L
1524 2928 mt 1524 3000 L
1923 2964 mt 1995 2964 L
1959 2928 mt 1959 3000 L
2357 2961 mt 2429 2961 L
2393 2925 mt 2393 2997 L
2792 2905 mt 2864 2905 L
2828 2869 mt 2828 2941 L
3226 2201 mt 3298 2201 L
3262 2165 mt 3262 2237 L
3661  956 mt 3733  956 L
3697  920 mt 3697  992 L
4095  644 mt 4167  644 L
4131  608 mt 4131  680 L
4530  609 mt 4602  609 L
4566  573 mt 4566  645 L
 631 2939 mt  681 2989 L
 681 2939 mt  631 2989 L
1065 2939 mt 1115 2989 L
1115 2939 mt 1065 2989 L
1499 2939 mt 1549 2989 L
1549 2939 mt 1499 2989 L
1934 2939 mt 1984 2989 L
1984 2939 mt 1934 2989 L
2368 2936 mt 2418 2986 L
2418 2936 mt 2368 2986 L
2803 2880 mt 2853 2930 L
2853 2880 mt 2803 2930 L
3237 2176 mt 3287 2226 L
3287 2176 mt 3237 2226 L
3672  931 mt 3722  981 L
3722  931 mt 3672  981 L
4106  619 mt 4156  669 L
4156  619 mt 4106  669 L
4541  584 mt 4591  634 L
4591  584 mt 4541  634 L
gs 656 284 3911 3083 rc
gr

0 sg
 639 3409 mt 
( ) s
4550  326 mt 
( ) s
1 sg
0 480 1505 0 0 -480 3002 824 4 MP
PP
-1505 0 0 480 1505 0 0 -480 3002 824 5 MP stroke
4 w
DO
SO
6 w
0 sg
3002  344 mt 4507  344 L
3002  824 mt 4507  824 L
4507  824 mt 4507  344 L
3002  824 mt 3002  344 L
3002  824 mt 4507  824 L
3002  824 mt 3002  344 L
3002  344 mt 4507  344 L
3002  824 mt 4507  824 L
4507  824 mt 4507  344 L
3002  824 mt 3002  344 L
3471  479 mt 
(Training set error) s
gs 3002 344 1506 481 rc
gs 3181 363 147 147 rc
c8
3218  436 mt 3290  436 L
3254  400 mt 3254  472 L
3229  411 mt 3279  461 L
3279  411 mt 3229  461 L
gr

c8
gr

c8
0 sg
3471  627 mt 
(Validation set error) s
gs 3002 344 1506 481 rc
gs 3181 511 147 147 rc
c9
3218  584 mt 3290  584 L
3254  548 mt 3254  620 L
3229  559 mt 3279  609 L
3279  559 mt 3229  609 L
gr

c9
gr

c9
0 sg
3471  775 mt 
(Test set error) s
gs 3002 344 1506 481 rc
gs 3181 658 147 147 rc
c10
3218  731 mt 3290  731 L
3254  695 mt 3254  767 L
3229  706 mt 3279  756 L
3279  706 mt 3229  756 L
gr

c10
gr

c10

end %%Color Dict

eplot
%%EndObject

epage
end

showpage

%%Trailer
%%EOF
