%!PS-Adobe-3.0 EPSF-3.0
%%Creator: MATLAB, The MathWorks, Inc. Version 7.12.0.635 (R2011a). Operating System: Microsoft Windows 7.
%%Title: C:\Users\prennert\phd\courses\sl\courseworks\sl1\code\5b.eps
%%CreationDate: 11/17/2011  17:20:29
%%DocumentNeededFonts: Helvetica
%%DocumentProcessColors: Cyan Magenta Yellow Black
%%LanguageLevel: 2
%%Pages: 1
%%BoundingBox:    87   262   507   578
%%EndComments

%%BeginProlog
% MathWorks dictionary
/MathWorks 160 dict begin
% definition operators
/bdef {bind def} bind def
/ldef {load def} bind def
/xdef {exch def} bdef
/xstore {exch store} bdef
% operator abbreviations
/c  /clip ldef
/cc /concat ldef
/cp /closepath ldef
/gr /grestore ldef
/gs /gsave ldef
/mt /moveto ldef
/np /newpath ldef
/cm /currentmatrix ldef
/sm /setmatrix ldef
/rm /rmoveto ldef
/rl /rlineto ldef
/s {show newpath} bdef
/sc {setcmykcolor} bdef
/sr /setrgbcolor ldef
/sg /setgray ldef
/w /setlinewidth ldef
/j /setlinejoin ldef
/cap /setlinecap ldef
/rc {rectclip} bdef
/rf {rectfill} bdef
% page state control
/pgsv () def
/bpage {/pgsv save def} bdef
/epage {pgsv restore} bdef
/bplot /gsave ldef
/eplot {stroke grestore} bdef
% orientation switch
/portraitMode 0 def /landscapeMode 1 def /rotateMode 2 def
% coordinate system mappings
/dpi2point 0 def
% font control
/FontSize 0 def
/FMS {/FontSize xstore findfont [FontSize 0 0 FontSize neg 0 0]
  makefont setfont} bdef
/ISOLatin1Encoding where {pop /WindowsLatin1Encoding 256 array bdef
ISOLatin1Encoding WindowsLatin1Encoding copy pop
/.notdef/.notdef/quotesinglbase/florin/quotedblbase/ellipsis/dagger
/daggerdbl/circumflex/perthousand/Scaron/guilsinglleft/OE/.notdef/.notdef
/.notdef/.notdef/quoteleft/quoteright/quotedblleft/quotedblright/bullet
/endash/emdash/tilde/trademark/scaron/guilsinglright/oe/.notdef/.notdef
/Ydieresis WindowsLatin1Encoding 128 32 getinterval astore pop}
{/WindowsLatin1Encoding StandardEncoding bdef} ifelse
/reencode {exch dup where {pop load} {pop StandardEncoding} ifelse
  exch dup 3 1 roll findfont dup length dict begin
  { 1 index /FID ne {def}{pop pop} ifelse } forall
  /Encoding exch def currentdict end definefont pop} bdef
/isroman {findfont /CharStrings get /Agrave known} bdef
/FMSR {3 1 roll 1 index dup isroman {reencode} {pop pop} ifelse
  exch FMS} bdef
/csm {1 dpi2point div -1 dpi2point div scale neg translate
 dup landscapeMode eq {pop -90 rotate}
  {rotateMode eq {90 rotate} if} ifelse} bdef
% line types: solid, dotted, dashed, dotdash
/SO { [] 0 setdash } bdef
/DO { [.5 dpi2point mul 4 dpi2point mul] 0 setdash } bdef
/DA { [6 dpi2point mul] 0 setdash } bdef
/DD { [.5 dpi2point mul 4 dpi2point mul 6 dpi2point mul 4
  dpi2point mul] 0 setdash } bdef
% macros for lines and objects
/L {lineto stroke} bdef
/MP {3 1 roll moveto 1 sub {rlineto} repeat} bdef
/AP {{rlineto} repeat} bdef
/PDlw -1 def
/W {/PDlw currentlinewidth def setlinewidth} def
/PP {closepath eofill} bdef
/DP {closepath stroke} bdef
/MR {4 -2 roll moveto dup  0 exch rlineto exch 0 rlineto
  neg 0 exch rlineto closepath} bdef
/FR {MR stroke} bdef
/PR {MR fill} bdef
/L1i {{currentfile picstr readhexstring pop} image} bdef
/tMatrix matrix def
/MakeOval {newpath tMatrix currentmatrix pop translate scale
0 0 1 0 360 arc tMatrix setmatrix} bdef
/FO {MakeOval stroke} bdef
/PO {MakeOval fill} bdef
/PD {currentlinewidth 2 div 0 360 arc fill
   PDlw -1 eq not {PDlw w /PDlw -1 def} if} def
/FA {newpath tMatrix currentmatrix pop translate scale
  0 0 1 5 -2 roll arc tMatrix setmatrix stroke} bdef
/PA {newpath tMatrix currentmatrix pop	translate 0 0 moveto scale
  0 0 1 5 -2 roll arc closepath tMatrix setmatrix fill} bdef
/FAn {newpath tMatrix currentmatrix pop translate scale
  0 0 1 5 -2 roll arcn tMatrix setmatrix stroke} bdef
/PAn {newpath tMatrix currentmatrix pop translate 0 0 moveto scale
  0 0 1 5 -2 roll arcn closepath tMatrix setmatrix fill} bdef
/vradius 0 def /hradius 0 def /lry 0 def
/lrx 0 def /uly 0 def /ulx 0 def /rad 0 def
/MRR {/vradius xdef /hradius xdef /lry xdef /lrx xdef /uly xdef
  /ulx xdef newpath tMatrix currentmatrix pop ulx hradius add uly
  vradius add translate hradius vradius scale 0 0 1 180 270 arc 
  tMatrix setmatrix lrx hradius sub uly vradius add translate
  hradius vradius scale 0 0 1 270 360 arc tMatrix setmatrix
  lrx hradius sub lry vradius sub translate hradius vradius scale
  0 0 1 0 90 arc tMatrix setmatrix ulx hradius add lry vradius sub
  translate hradius vradius scale 0 0 1 90 180 arc tMatrix setmatrix
  closepath} bdef
/FRR {MRR stroke } bdef
/PRR {MRR fill } bdef
/MlrRR {/lry xdef /lrx xdef /uly xdef /ulx xdef /rad lry uly sub 2 div def
  newpath tMatrix currentmatrix pop ulx rad add uly rad add translate
  rad rad scale 0 0 1 90 270 arc tMatrix setmatrix lrx rad sub lry rad
  sub translate rad rad scale 0 0 1 270 90 arc tMatrix setmatrix
  closepath} bdef
/FlrRR {MlrRR stroke } bdef
/PlrRR {MlrRR fill } bdef
/MtbRR {/lry xdef /lrx xdef /uly xdef /ulx xdef /rad lrx ulx sub 2 div def
  newpath tMatrix currentmatrix pop ulx rad add uly rad add translate
  rad rad scale 0 0 1 180 360 arc tMatrix setmatrix lrx rad sub lry rad
  sub translate rad rad scale 0 0 1 0 180 arc tMatrix setmatrix
  closepath} bdef
/FtbRR {MtbRR stroke } bdef
/PtbRR {MtbRR fill } bdef
/stri 6 array def /dtri 6 array def
/smat 6 array def /dmat 6 array def
/tmat1 6 array def /tmat2 6 array def /dif 3 array def
/asub {/ind2 exch def /ind1 exch def dup dup
  ind1 get exch ind2 get sub exch } bdef
/tri_to_matrix {
  2 0 asub 3 1 asub 4 0 asub 5 1 asub
  dup 0 get exch 1 get 7 -1 roll astore } bdef
/compute_transform {
  dmat dtri tri_to_matrix tmat1 invertmatrix 
  smat stri tri_to_matrix tmat2 concatmatrix } bdef
/ds {stri astore pop} bdef
/dt {dtri astore pop} bdef
/db {2 copy /cols xdef /rows xdef mul dup 3 mul string
  currentfile 
  3 index 0 eq {/ASCIIHexDecode filter}
  {/ASCII85Decode filter 3 index 2 eq {/RunLengthDecode filter} if }
  ifelse exch readstring pop
  dup 0 3 index getinterval /rbmap xdef
  dup 2 index dup getinterval /gbmap xdef
  1 index dup 2 mul exch getinterval /bbmap xdef pop pop}bdef
/it {gs np dtri aload pop moveto lineto lineto cp c
  cols rows 8 compute_transform 
  rbmap gbmap bbmap true 3 colorimage gr}bdef
/il {newpath moveto lineto stroke}bdef
currentdict end def
%%EndProlog

%%BeginSetup
MathWorks begin

0 cap

end
%%EndSetup

%%Page: 1 1
%%BeginPageSetup
%%PageBoundingBox:    87   262   507   578
MathWorks begin
bpage
%%EndPageSetup

%%BeginObject: obj1
bplot

/dpi2point 12 def
portraitMode 1044 6936 csm

    0     0  5045  3782 rc
86 dict begin %Colortable dictionary
/c0 { 0.000000 0.000000 0.000000 sr} bdef
/c1 { 1.000000 1.000000 1.000000 sr} bdef
/c2 { 0.900000 0.000000 0.000000 sr} bdef
/c3 { 0.000000 0.820000 0.000000 sr} bdef
/c4 { 0.000000 0.000000 0.800000 sr} bdef
/c5 { 0.910000 0.820000 0.320000 sr} bdef
/c6 { 1.000000 0.260000 0.820000 sr} bdef
/c7 { 0.000000 0.820000 0.820000 sr} bdef
c0
1 j
1 sg
   0    0 5046 3783 rf
6 w
0 3082 3910 0 0 -3082 656 3366 4 MP
PP
-3910 0 0 3082 3910 0 0 -3082 656 3366 5 MP stroke
4 w
DO
SO
6 w
0 sg
 656 3366 mt 4566 3366 L
 656 3366 mt  656  284 L
 656 3366 mt  656 3326 L
%%IncludeResource: font Helvetica
/Helvetica /WindowsLatin1Encoding 120 FMSR

 553 3511 mt 
(-6) s
1090 3366 mt 1090 3326 L
 987 3511 mt 
(-5) s
1524 3366 mt 1524 3326 L
1421 3511 mt 
(-4) s
1959 3366 mt 1959 3326 L
1856 3511 mt 
(-3) s
2393 3366 mt 2393 3326 L
2290 3511 mt 
(-2) s
2828 3366 mt 2828 3326 L
2725 3511 mt 
(-1) s
3262 3366 mt 3262 3326 L
3229 3511 mt 
(0) s
3697 3366 mt 3697 3326 L
3664 3511 mt 
(1) s
4131 3366 mt 4131 3326 L
4098 3511 mt 
(2) s
4566 3366 mt 4566 3326 L
4533 3511 mt 
(3) s
 656 3366 mt  695 3366 L
 555 3410 mt 
(0) s
 656 3023 mt  695 3023 L
 555 3067 mt 
(1) s
 656 2681 mt  695 2681 L
 555 2725 mt 
(2) s
 656 2338 mt  695 2338 L
 555 2382 mt 
(3) s
 656 1996 mt  695 1996 L
 555 2040 mt 
(4) s
 656 1653 mt  695 1653 L
 555 1697 mt 
(5) s
 656 1311 mt  695 1311 L
 555 1355 mt 
(6) s
 656  968 mt  695  968 L
 555 1012 mt 
(7) s
 656  626 mt  695  626 L
 555  670 mt 
(8) s
 656  284 mt  695  284 L
 555  328 mt 
(9) s
1737  189 mt 
(8 training samples: gamma = 10) s
%%IncludeResource: font Helvetica
/Helvetica /WindowsLatin1Encoding 96 FMSR

3440  129 mt 
(0) s
gs 656 284 3911 3083 rc
gr

/c8 { 0.000000 0.000000 1.000000 sr} bdef
c8
 620 3365 mt  692 3365 L
 656 3329 mt  656 3401 L
1054 3365 mt 1126 3365 L
1090 3329 mt 1090 3401 L
1488 3365 mt 1560 3365 L
1524 3329 mt 1524 3401 L
1923 3365 mt 1995 3365 L
1959 3329 mt 1959 3401 L
2357 3364 mt 2429 3364 L
2393 3328 mt 2393 3400 L
2792 3297 mt 2864 3297 L
2828 3261 mt 2828 3333 L
3226 2978 mt 3298 2978 L
3262 2942 mt 3262 3014 L
3661 2566 mt 3733 2566 L
3697 2530 mt 3697 2602 L
4095 2400 mt 4167 2400 L
4131 2364 mt 4131 2436 L
4530 2377 mt 4602 2377 L
4566 2341 mt 4566 2413 L
 631 3340 mt  681 3390 L
 681 3340 mt  631 3390 L
1065 3340 mt 1115 3390 L
1115 3340 mt 1065 3390 L
1499 3340 mt 1549 3390 L
1549 3340 mt 1499 3390 L
1934 3340 mt 1984 3390 L
1984 3340 mt 1934 3390 L
2368 3339 mt 2418 3389 L
2418 3339 mt 2368 3389 L
2803 3272 mt 2853 3322 L
2853 3272 mt 2803 3322 L
3237 2953 mt 3287 3003 L
3287 2953 mt 3237 3003 L
3672 2541 mt 3722 2591 L
3722 2541 mt 3672 2591 L
4106 2375 mt 4156 2425 L
4156 2375 mt 4106 2425 L
4541 2352 mt 4591 2402 L
4591 2352 mt 4541 2402 L
gs 656 284 3911 3083 rc
gr

/c9 { 1.000000 0.000000 0.000000 sr} bdef
c9
 620 2173 mt  692 2173 L
 656 2137 mt  656 2209 L
1054 2173 mt 1126 2173 L
1090 2137 mt 1090 2209 L
1488 2174 mt 1560 2174 L
1524 2138 mt 1524 2210 L
1923 2182 mt 1995 2182 L
1959 2146 mt 1959 2218 L
2357 2254 mt 2429 2254 L
2393 2218 mt 2393 2290 L
2792 2567 mt 2864 2567 L
2828 2531 mt 2828 2603 L
3226 2633 mt 3298 2633 L
3262 2597 mt 3262 2669 L
3661 2228 mt 3733 2228 L
3697 2192 mt 3697 2264 L
4095 2084 mt 4167 2084 L
4131 2048 mt 4131 2120 L
4530 2067 mt 4602 2067 L
4566 2031 mt 4566 2103 L
 631 2148 mt  681 2198 L
 681 2148 mt  631 2198 L
1065 2148 mt 1115 2198 L
1115 2148 mt 1065 2198 L
1499 2149 mt 1549 2199 L
1549 2149 mt 1499 2199 L
1934 2157 mt 1984 2207 L
1984 2157 mt 1934 2207 L
2368 2229 mt 2418 2279 L
2418 2229 mt 2368 2279 L
2803 2542 mt 2853 2592 L
2853 2542 mt 2803 2592 L
3237 2608 mt 3287 2658 L
3287 2608 mt 3237 2658 L
3672 2203 mt 3722 2253 L
3722 2203 mt 3672 2253 L
4106 2059 mt 4156 2109 L
4156 2059 mt 4106 2109 L
4541 2042 mt 4591 2092 L
4591 2042 mt 4541 2092 L
gs 656 284 3911 3083 rc
gr

/c10 { 1.000000 0.000000 1.000000 sr} bdef
c10
 620 2244 mt  692 2244 L
 656 2208 mt  656 2280 L
1054 2244 mt 1126 2244 L
1090 2208 mt 1090 2280 L
1488 2245 mt 1560 2245 L
1524 2209 mt 1524 2281 L
1923 2257 mt 1995 2257 L
1959 2221 mt 1959 2293 L
2357 2351 mt 2429 2351 L
2393 2315 mt 2393 2387 L
2792 2435 mt 2864 2435 L
2828 2399 mt 2828 2471 L
3226 1451 mt 3298 1451 L
3262 1415 mt 3262 1487 L
3661  780 mt 3733  780 L
3697  744 mt 3697  816 L
4095  625 mt 4167  625 L
4131  589 mt 4131  661 L
4530  607 mt 4602  607 L
4566  571 mt 4566  643 L
 631 2219 mt  681 2269 L
 681 2219 mt  631 2269 L
1065 2219 mt 1115 2269 L
1115 2219 mt 1065 2269 L
1499 2220 mt 1549 2270 L
1549 2220 mt 1499 2270 L
1934 2232 mt 1984 2282 L
1984 2232 mt 1934 2282 L
2368 2326 mt 2418 2376 L
2418 2326 mt 2368 2376 L
2803 2410 mt 2853 2460 L
2853 2410 mt 2803 2460 L
3237 1426 mt 3287 1476 L
3287 1426 mt 3237 1476 L
3672  755 mt 3722  805 L
3722  755 mt 3672  805 L
4106  600 mt 4156  650 L
4156  600 mt 4106  650 L
4541  582 mt 4591  632 L
4591  582 mt 4541  632 L
gs 656 284 3911 3083 rc
gr

0 sg
%%IncludeResource: font Helvetica
/Helvetica /WindowsLatin1Encoding 120 FMSR

 639 3409 mt 
( ) s
4550  326 mt 
( ) s
1 sg
0 480 1505 0 0 -480 3002 824 4 MP
PP
-1505 0 0 480 1505 0 0 -480 3002 824 5 MP stroke
4 w
DO
SO
6 w
0 sg
3002  344 mt 4507  344 L
3002  824 mt 4507  824 L
4507  824 mt 4507  344 L
3002  824 mt 3002  344 L
3002  824 mt 4507  824 L
3002  824 mt 3002  344 L
3002  344 mt 4507  344 L
3002  824 mt 4507  824 L
4507  824 mt 4507  344 L
3002  824 mt 3002  344 L
3471  479 mt 
(Training set error) s
gs 3002 344 1506 481 rc
gs 3181 363 147 147 rc
c8
3218  436 mt 3290  436 L
3254  400 mt 3254  472 L
3229  411 mt 3279  461 L
3279  411 mt 3229  461 L
gr

c8
gr

c8
0 sg
3471  627 mt 
(Validation set error) s
gs 3002 344 1506 481 rc
gs 3181 511 147 147 rc
c9
3218  584 mt 3290  584 L
3254  548 mt 3254  620 L
3229  559 mt 3279  609 L
3279  559 mt 3229  609 L
gr

c9
gr

c9
0 sg
3471  775 mt 
(Test set error) s
gs 3002 344 1506 481 rc
gs 3181 658 147 147 rc
c10
3218  731 mt 3290  731 L
3254  695 mt 3254  767 L
3229  706 mt 3279  756 L
3279  706 mt 3229  756 L
gr

c10
gr

c10

end %%Color Dict

eplot
%%EndObject

epage
end

showpage

%%Trailer
%%EOF
