%!PS-Adobe-3.0 EPSF-3.0
%%Creator: MATLAB, The MathWorks, Inc. Version 7.12.0.635 (R2011a). Operating System: Microsoft Windows 7.
%%Title: C:\Users\prennert\phd\courses\sl\courseworks\sl1\code\5c.eps
%%CreationDate: 11/17/2011  17:48:55
%%DocumentNeededFonts: Helvetica
%%DocumentProcessColors: Cyan Magenta Yellow Black
%%LanguageLevel: 2
%%Pages: 1
%%BoundingBox:    87   262   507   578
%%EndComments

%%BeginProlog
% MathWorks dictionary
/MathWorks 160 dict begin
% definition operators
/bdef {bind def} bind def
/ldef {load def} bind def
/xdef {exch def} bdef
/xstore {exch store} bdef
% operator abbreviations
/c  /clip ldef
/cc /concat ldef
/cp /closepath ldef
/gr /grestore ldef
/gs /gsave ldef
/mt /moveto ldef
/np /newpath ldef
/cm /currentmatrix ldef
/sm /setmatrix ldef
/rm /rmoveto ldef
/rl /rlineto ldef
/s {show newpath} bdef
/sc {setcmykcolor} bdef
/sr /setrgbcolor ldef
/sg /setgray ldef
/w /setlinewidth ldef
/j /setlinejoin ldef
/cap /setlinecap ldef
/rc {rectclip} bdef
/rf {rectfill} bdef
% page state control
/pgsv () def
/bpage {/pgsv save def} bdef
/epage {pgsv restore} bdef
/bplot /gsave ldef
/eplot {stroke grestore} bdef
% orientation switch
/portraitMode 0 def /landscapeMode 1 def /rotateMode 2 def
% coordinate system mappings
/dpi2point 0 def
% font control
/FontSize 0 def
/FMS {/FontSize xstore findfont [FontSize 0 0 FontSize neg 0 0]
  makefont setfont} bdef
/ISOLatin1Encoding where {pop /WindowsLatin1Encoding 256 array bdef
ISOLatin1Encoding WindowsLatin1Encoding copy pop
/.notdef/.notdef/quotesinglbase/florin/quotedblbase/ellipsis/dagger
/daggerdbl/circumflex/perthousand/Scaron/guilsinglleft/OE/.notdef/.notdef
/.notdef/.notdef/quoteleft/quoteright/quotedblleft/quotedblright/bullet
/endash/emdash/tilde/trademark/scaron/guilsinglright/oe/.notdef/.notdef
/Ydieresis WindowsLatin1Encoding 128 32 getinterval astore pop}
{/WindowsLatin1Encoding StandardEncoding bdef} ifelse
/reencode {exch dup where {pop load} {pop StandardEncoding} ifelse
  exch dup 3 1 roll findfont dup length dict begin
  { 1 index /FID ne {def}{pop pop} ifelse } forall
  /Encoding exch def currentdict end definefont pop} bdef
/isroman {findfont /CharStrings get /Agrave known} bdef
/FMSR {3 1 roll 1 index dup isroman {reencode} {pop pop} ifelse
  exch FMS} bdef
/csm {1 dpi2point div -1 dpi2point div scale neg translate
 dup landscapeMode eq {pop -90 rotate}
  {rotateMode eq {90 rotate} if} ifelse} bdef
% line types: solid, dotted, dashed, dotdash
/SO { [] 0 setdash } bdef
/DO { [.5 dpi2point mul 4 dpi2point mul] 0 setdash } bdef
/DA { [6 dpi2point mul] 0 setdash } bdef
/DD { [.5 dpi2point mul 4 dpi2point mul 6 dpi2point mul 4
  dpi2point mul] 0 setdash } bdef
% macros for lines and objects
/L {lineto stroke} bdef
/MP {3 1 roll moveto 1 sub {rlineto} repeat} bdef
/AP {{rlineto} repeat} bdef
/PDlw -1 def
/W {/PDlw currentlinewidth def setlinewidth} def
/PP {closepath eofill} bdef
/DP {closepath stroke} bdef
/MR {4 -2 roll moveto dup  0 exch rlineto exch 0 rlineto
  neg 0 exch rlineto closepath} bdef
/FR {MR stroke} bdef
/PR {MR fill} bdef
/L1i {{currentfile picstr readhexstring pop} image} bdef
/tMatrix matrix def
/MakeOval {newpath tMatrix currentmatrix pop translate scale
0 0 1 0 360 arc tMatrix setmatrix} bdef
/FO {MakeOval stroke} bdef
/PO {MakeOval fill} bdef
/PD {currentlinewidth 2 div 0 360 arc fill
   PDlw -1 eq not {PDlw w /PDlw -1 def} if} def
/FA {newpath tMatrix currentmatrix pop translate scale
  0 0 1 5 -2 roll arc tMatrix setmatrix stroke} bdef
/PA {newpath tMatrix currentmatrix pop	translate 0 0 moveto scale
  0 0 1 5 -2 roll arc closepath tMatrix setmatrix fill} bdef
/FAn {newpath tMatrix currentmatrix pop translate scale
  0 0 1 5 -2 roll arcn tMatrix setmatrix stroke} bdef
/PAn {newpath tMatrix currentmatrix pop translate 0 0 moveto scale
  0 0 1 5 -2 roll arcn closepath tMatrix setmatrix fill} bdef
/vradius 0 def /hradius 0 def /lry 0 def
/lrx 0 def /uly 0 def /ulx 0 def /rad 0 def
/MRR {/vradius xdef /hradius xdef /lry xdef /lrx xdef /uly xdef
  /ulx xdef newpath tMatrix currentmatrix pop ulx hradius add uly
  vradius add translate hradius vradius scale 0 0 1 180 270 arc 
  tMatrix setmatrix lrx hradius sub uly vradius add translate
  hradius vradius scale 0 0 1 270 360 arc tMatrix setmatrix
  lrx hradius sub lry vradius sub translate hradius vradius scale
  0 0 1 0 90 arc tMatrix setmatrix ulx hradius add lry vradius sub
  translate hradius vradius scale 0 0 1 90 180 arc tMatrix setmatrix
  closepath} bdef
/FRR {MRR stroke } bdef
/PRR {MRR fill } bdef
/MlrRR {/lry xdef /lrx xdef /uly xdef /ulx xdef /rad lry uly sub 2 div def
  newpath tMatrix currentmatrix pop ulx rad add uly rad add translate
  rad rad scale 0 0 1 90 270 arc tMatrix setmatrix lrx rad sub lry rad
  sub translate rad rad scale 0 0 1 270 90 arc tMatrix setmatrix
  closepath} bdef
/FlrRR {MlrRR stroke } bdef
/PlrRR {MlrRR fill } bdef
/MtbRR {/lry xdef /lrx xdef /uly xdef /ulx xdef /rad lrx ulx sub 2 div def
  newpath tMatrix currentmatrix pop ulx rad add uly rad add translate
  rad rad scale 0 0 1 180 360 arc tMatrix setmatrix lrx rad sub lry rad
  sub translate rad rad scale 0 0 1 0 180 arc tMatrix setmatrix
  closepath} bdef
/FtbRR {MtbRR stroke } bdef
/PtbRR {MtbRR fill } bdef
/stri 6 array def /dtri 6 array def
/smat 6 array def /dmat 6 array def
/tmat1 6 array def /tmat2 6 array def /dif 3 array def
/asub {/ind2 exch def /ind1 exch def dup dup
  ind1 get exch ind2 get sub exch } bdef
/tri_to_matrix {
  2 0 asub 3 1 asub 4 0 asub 5 1 asub
  dup 0 get exch 1 get 7 -1 roll astore } bdef
/compute_transform {
  dmat dtri tri_to_matrix tmat1 invertmatrix 
  smat stri tri_to_matrix tmat2 concatmatrix } bdef
/ds {stri astore pop} bdef
/dt {dtri astore pop} bdef
/db {2 copy /cols xdef /rows xdef mul dup 3 mul string
  currentfile 
  3 index 0 eq {/ASCIIHexDecode filter}
  {/ASCII85Decode filter 3 index 2 eq {/RunLengthDecode filter} if }
  ifelse exch readstring pop
  dup 0 3 index getinterval /rbmap xdef
  dup 2 index dup getinterval /gbmap xdef
  1 index dup 2 mul exch getinterval /bbmap xdef pop pop}bdef
/it {gs np dtri aload pop moveto lineto lineto cp c
  cols rows 8 compute_transform 
  rbmap gbmap bbmap true 3 colorimage gr}bdef
/il {newpath moveto lineto stroke}bdef
currentdict end def
%%EndProlog

%%BeginSetup
MathWorks begin

0 cap

end
%%EndSetup

%%Page: 1 1
%%BeginPageSetup
%%PageBoundingBox:    87   262   507   578
MathWorks begin
bpage
%%EndPageSetup

%%BeginObject: obj1
bplot

/dpi2point 12 def
portraitMode 1044 6936 csm

    0     0  5045  3782 rc
86 dict begin %Colortable dictionary
/c0 { 0.000000 0.000000 0.000000 sr} bdef
/c1 { 1.000000 1.000000 1.000000 sr} bdef
/c2 { 0.900000 0.000000 0.000000 sr} bdef
/c3 { 0.000000 0.820000 0.000000 sr} bdef
/c4 { 0.000000 0.000000 0.800000 sr} bdef
/c5 { 0.910000 0.820000 0.320000 sr} bdef
/c6 { 1.000000 0.260000 0.820000 sr} bdef
/c7 { 0.000000 0.820000 0.820000 sr} bdef
c0
1 j
1 sg
   0    0 5046 3783 rf
6 w
0 3083 3910 0 0 -3083 656 3366 4 MP
PP
-3910 0 0 3083 3910 0 0 -3083 656 3366 5 MP stroke
4 w
DO
SO
6 w
0 sg
 656 3366 mt 4566 3366 L
 656 3366 mt  656  283 L
 656 3366 mt  656 3326 L
%%IncludeResource: font Helvetica
/Helvetica /WindowsLatin1Encoding 120 FMSR

 553 3511 mt 
(-6) s
1090 3366 mt 1090 3326 L
 987 3511 mt 
(-5) s
1524 3366 mt 1524 3326 L
1421 3511 mt 
(-4) s
1959 3366 mt 1959 3326 L
1856 3511 mt 
(-3) s
2393 3366 mt 2393 3326 L
2290 3511 mt 
(-2) s
2828 3366 mt 2828 3326 L
2725 3511 mt 
(-1) s
3262 3366 mt 3262 3326 L
3229 3511 mt 
(0) s
3697 3366 mt 3697 3326 L
3664 3511 mt 
(1) s
4131 3366 mt 4131 3326 L
4098 3511 mt 
(2) s
4566 3366 mt 4566 3326 L
4533 3511 mt 
(3) s
 656 3366 mt  695 3366 L
 455 3410 mt 
(0.7) s
 656 3023 mt  695 3023 L
 455 3067 mt 
(0.8) s
 656 2681 mt  695 2681 L
 455 2725 mt 
(0.9) s
 656 2338 mt  695 2338 L
 555 2382 mt 
(1) s
 656 1996 mt  695 1996 L
 455 2040 mt 
(1.1) s
 656 1653 mt  695 1653 L
 455 1697 mt 
(1.2) s
 656 1311 mt  695 1311 L
 455 1355 mt 
(1.3) s
 656  968 mt  695  968 L
 455 1012 mt 
(1.4) s
 656  626 mt  695  626 L
 455  670 mt 
(1.5) s
 656  284 mt  695  284 L
 455  328 mt 
(1.6) s
1669  189 mt 
(80 training samples: gamma = 10) s
%%IncludeResource: font Helvetica
/Helvetica /WindowsLatin1Encoding 96 FMSR

3439  129 mt 
(-) s
%%IncludeResource: font Helvetica
/Helvetica /WindowsLatin1Encoding 120 FMSR

3495  189 mt 
(1) s
gs 656 284 3911 3083 rc
gr

/c8 { 0.000000 0.000000 1.000000 sr} bdef
c8
 620 1411 mt  692 1411 L
 656 1375 mt  656 1447 L
1054 1411 mt 1126 1411 L
1090 1375 mt 1090 1447 L
1488 1411 mt 1560 1411 L
1524 1375 mt 1524 1447 L
1923 1411 mt 1995 1411 L
1959 1375 mt 1959 1447 L
2357 1411 mt 2429 1411 L
2393 1375 mt 2393 1447 L
2792 1399 mt 2864 1399 L
2828 1363 mt 2828 1435 L
3226 1122 mt 3298 1122 L
3262 1086 mt 3262 1158 L
3661  607 mt 3733  607 L
3697  571 mt 3697  643 L
4095  487 mt 4167  487 L
4131  451 mt 4131  523 L
4530  474 mt 4602  474 L
4566  438 mt 4566  510 L
 631 1386 mt  681 1436 L
 681 1386 mt  631 1436 L
1065 1386 mt 1115 1436 L
1115 1386 mt 1065 1436 L
1499 1386 mt 1549 1436 L
1549 1386 mt 1499 1436 L
1934 1386 mt 1984 1436 L
1984 1386 mt 1934 1436 L
2368 1386 mt 2418 1436 L
2418 1386 mt 2368 1436 L
2803 1374 mt 2853 1424 L
2853 1374 mt 2803 1424 L
3237 1097 mt 3287 1147 L
3287 1097 mt 3237 1147 L
3672  582 mt 3722  632 L
3722  582 mt 3672  632 L
4106  462 mt 4156  512 L
4156  462 mt 4106  512 L
4541  449 mt 4591  499 L
4591  449 mt 4541  499 L
gs 656 284 3911 3083 rc
gr

/c9 { 1.000000 0.000000 0.000000 sr} bdef
c9
 620 3311 mt  692 3311 L
 656 3275 mt  656 3347 L
1054 3311 mt 1126 3311 L
1090 3275 mt 1090 3347 L
1488 3311 mt 1560 3311 L
1524 3275 mt 1524 3347 L
1923 3312 mt 1995 3312 L
1959 3276 mt 1959 3348 L
2357 3315 mt 2429 3315 L
2393 3279 mt 2393 3351 L
2792 3336 mt 2864 3336 L
2828 3300 mt 2828 3372 L
3226 3142 mt 3298 3142 L
3262 3106 mt 3262 3178 L
3661 2623 mt 3733 2623 L
3697 2587 mt 3697 2659 L
4095 2495 mt 4167 2495 L
4131 2459 mt 4131 2531 L
4530 2481 mt 4602 2481 L
4566 2445 mt 4566 2517 L
 631 3286 mt  681 3336 L
 681 3286 mt  631 3336 L
1065 3286 mt 1115 3336 L
1115 3286 mt 1065 3336 L
1499 3286 mt 1549 3336 L
1549 3286 mt 1499 3336 L
1934 3287 mt 1984 3337 L
1984 3287 mt 1934 3337 L
2368 3290 mt 2418 3340 L
2418 3290 mt 2368 3340 L
2803 3311 mt 2853 3361 L
2853 3311 mt 2803 3361 L
3237 3117 mt 3287 3167 L
3287 3117 mt 3237 3167 L
3672 2598 mt 3722 2648 L
3722 2598 mt 3672 2648 L
4106 2470 mt 4156 2520 L
4156 2470 mt 4106 2520 L
4541 2456 mt 4591 2506 L
4591 2456 mt 4541 2506 L
gs 656 284 3911 3083 rc
gr

/c10 { 1.000000 0.000000 1.000000 sr} bdef
c10
 620 2633 mt  692 2633 L
 656 2597 mt  656 2669 L
1054 2633 mt 1126 2633 L
1090 2597 mt 1090 2669 L
1488 2633 mt 1560 2633 L
1524 2597 mt 1524 2669 L
1923 2633 mt 1995 2633 L
1959 2597 mt 1959 2669 L
2357 2633 mt 2429 2633 L
2393 2597 mt 2393 2669 L
2792 2616 mt 2864 2616 L
2828 2580 mt 2828 2652 L
3226 2186 mt 3298 2186 L
3262 2150 mt 3262 2222 L
3661 1388 mt 3733 1388 L
3697 1352 mt 3697 1424 L
4095 1203 mt 4167 1203 L
4131 1167 mt 4131 1239 L
4530 1182 mt 4602 1182 L
4566 1146 mt 4566 1218 L
 631 2608 mt  681 2658 L
 681 2608 mt  631 2658 L
1065 2608 mt 1115 2658 L
1115 2608 mt 1065 2658 L
1499 2608 mt 1549 2658 L
1549 2608 mt 1499 2658 L
1934 2608 mt 1984 2658 L
1984 2608 mt 1934 2658 L
2368 2608 mt 2418 2658 L
2418 2608 mt 2368 2658 L
2803 2591 mt 2853 2641 L
2853 2591 mt 2803 2641 L
3237 2161 mt 3287 2211 L
3287 2161 mt 3237 2211 L
3672 1363 mt 3722 1413 L
3722 1363 mt 3672 1413 L
4106 1178 mt 4156 1228 L
4156 1178 mt 4106 1228 L
4541 1157 mt 4591 1207 L
4591 1157 mt 4541 1207 L
gs 656 284 3911 3083 rc
gr

0 sg
 639 3409 mt 
( ) s
4550  326 mt 
( ) s
1 sg
0 480 1505 0 0 -480 3002 824 4 MP
PP
-1505 0 0 480 1505 0 0 -480 3002 824 5 MP stroke
4 w
DO
SO
6 w
0 sg
3002  344 mt 4507  344 L
3002  824 mt 4507  824 L
4507  824 mt 4507  344 L
3002  824 mt 3002  344 L
3002  824 mt 4507  824 L
3002  824 mt 3002  344 L
3002  344 mt 4507  344 L
3002  824 mt 4507  824 L
4507  824 mt 4507  344 L
3002  824 mt 3002  344 L
3471  479 mt 
(Training set error) s
gs 3002 344 1506 481 rc
gs 3181 363 147 147 rc
c8
3218  436 mt 3290  436 L
3254  400 mt 3254  472 L
3229  411 mt 3279  461 L
3279  411 mt 3229  461 L
gr

c8
gr

c8
0 sg
3471  627 mt 
(Validation set error) s
gs 3002 344 1506 481 rc
gs 3181 511 147 147 rc
c9
3218  584 mt 3290  584 L
3254  548 mt 3254  620 L
3229  559 mt 3279  609 L
3279  559 mt 3229  609 L
gr

c9
gr

c9
0 sg
3471  775 mt 
(Test set error) s
gs 3002 344 1506 481 rc
gs 3181 658 147 147 rc
c10
3218  731 mt 3290  731 L
3254  695 mt 3254  767 L
3229  706 mt 3279  756 L
3279  706 mt 3229  756 L
gr

c10
gr

c10

end %%Color Dict

eplot
%%EndObject

epage
end

showpage

%%Trailer
%%EOF
