%!PS-Adobe-3.0 EPSF-3.0
%%Creator: MATLAB, The MathWorks, Inc. Version 7.12.0.635 (R2011a). Operating System: Microsoft Windows 7.
%%Title: C:\Users\prennert\phd\courses\sl\courseworks\sl1\doc\images\6a.eps
%%CreationDate: 11/17/2011  20:55:58
%%DocumentNeededFonts: Helvetica
%%DocumentProcessColors: Cyan Magenta Yellow Black
%%LanguageLevel: 2
%%Pages: 1
%%BoundingBox:    87   262   507   578
%%EndComments

%%BeginProlog
% MathWorks dictionary
/MathWorks 160 dict begin
% definition operators
/bdef {bind def} bind def
/ldef {load def} bind def
/xdef {exch def} bdef
/xstore {exch store} bdef
% operator abbreviations
/c  /clip ldef
/cc /concat ldef
/cp /closepath ldef
/gr /grestore ldef
/gs /gsave ldef
/mt /moveto ldef
/np /newpath ldef
/cm /currentmatrix ldef
/sm /setmatrix ldef
/rm /rmoveto ldef
/rl /rlineto ldef
/s {show newpath} bdef
/sc {setcmykcolor} bdef
/sr /setrgbcolor ldef
/sg /setgray ldef
/w /setlinewidth ldef
/j /setlinejoin ldef
/cap /setlinecap ldef
/rc {rectclip} bdef
/rf {rectfill} bdef
% page state control
/pgsv () def
/bpage {/pgsv save def} bdef
/epage {pgsv restore} bdef
/bplot /gsave ldef
/eplot {stroke grestore} bdef
% orientation switch
/portraitMode 0 def /landscapeMode 1 def /rotateMode 2 def
% coordinate system mappings
/dpi2point 0 def
% font control
/FontSize 0 def
/FMS {/FontSize xstore findfont [FontSize 0 0 FontSize neg 0 0]
  makefont setfont} bdef
/ISOLatin1Encoding where {pop /WindowsLatin1Encoding 256 array bdef
ISOLatin1Encoding WindowsLatin1Encoding copy pop
/.notdef/.notdef/quotesinglbase/florin/quotedblbase/ellipsis/dagger
/daggerdbl/circumflex/perthousand/Scaron/guilsinglleft/OE/.notdef/.notdef
/.notdef/.notdef/quoteleft/quoteright/quotedblleft/quotedblright/bullet
/endash/emdash/tilde/trademark/scaron/guilsinglright/oe/.notdef/.notdef
/Ydieresis WindowsLatin1Encoding 128 32 getinterval astore pop}
{/WindowsLatin1Encoding StandardEncoding bdef} ifelse
/reencode {exch dup where {pop load} {pop StandardEncoding} ifelse
  exch dup 3 1 roll findfont dup length dict begin
  { 1 index /FID ne {def}{pop pop} ifelse } forall
  /Encoding exch def currentdict end definefont pop} bdef
/isroman {findfont /CharStrings get /Agrave known} bdef
/FMSR {3 1 roll 1 index dup isroman {reencode} {pop pop} ifelse
  exch FMS} bdef
/csm {1 dpi2point div -1 dpi2point div scale neg translate
 dup landscapeMode eq {pop -90 rotate}
  {rotateMode eq {90 rotate} if} ifelse} bdef
% line types: solid, dotted, dashed, dotdash
/SO { [] 0 setdash } bdef
/DO { [.5 dpi2point mul 4 dpi2point mul] 0 setdash } bdef
/DA { [6 dpi2point mul] 0 setdash } bdef
/DD { [.5 dpi2point mul 4 dpi2point mul 6 dpi2point mul 4
  dpi2point mul] 0 setdash } bdef
% macros for lines and objects
/L {lineto stroke} bdef
/MP {3 1 roll moveto 1 sub {rlineto} repeat} bdef
/AP {{rlineto} repeat} bdef
/PDlw -1 def
/W {/PDlw currentlinewidth def setlinewidth} def
/PP {closepath eofill} bdef
/DP {closepath stroke} bdef
/MR {4 -2 roll moveto dup  0 exch rlineto exch 0 rlineto
  neg 0 exch rlineto closepath} bdef
/FR {MR stroke} bdef
/PR {MR fill} bdef
/L1i {{currentfile picstr readhexstring pop} image} bdef
/tMatrix matrix def
/MakeOval {newpath tMatrix currentmatrix pop translate scale
0 0 1 0 360 arc tMatrix setmatrix} bdef
/FO {MakeOval stroke} bdef
/PO {MakeOval fill} bdef
/PD {currentlinewidth 2 div 0 360 arc fill
   PDlw -1 eq not {PDlw w /PDlw -1 def} if} def
/FA {newpath tMatrix currentmatrix pop translate scale
  0 0 1 5 -2 roll arc tMatrix setmatrix stroke} bdef
/PA {newpath tMatrix currentmatrix pop	translate 0 0 moveto scale
  0 0 1 5 -2 roll arc closepath tMatrix setmatrix fill} bdef
/FAn {newpath tMatrix currentmatrix pop translate scale
  0 0 1 5 -2 roll arcn tMatrix setmatrix stroke} bdef
/PAn {newpath tMatrix currentmatrix pop translate 0 0 moveto scale
  0 0 1 5 -2 roll arcn closepath tMatrix setmatrix fill} bdef
/vradius 0 def /hradius 0 def /lry 0 def
/lrx 0 def /uly 0 def /ulx 0 def /rad 0 def
/MRR {/vradius xdef /hradius xdef /lry xdef /lrx xdef /uly xdef
  /ulx xdef newpath tMatrix currentmatrix pop ulx hradius add uly
  vradius add translate hradius vradius scale 0 0 1 180 270 arc 
  tMatrix setmatrix lrx hradius sub uly vradius add translate
  hradius vradius scale 0 0 1 270 360 arc tMatrix setmatrix
  lrx hradius sub lry vradius sub translate hradius vradius scale
  0 0 1 0 90 arc tMatrix setmatrix ulx hradius add lry vradius sub
  translate hradius vradius scale 0 0 1 90 180 arc tMatrix setmatrix
  closepath} bdef
/FRR {MRR stroke } bdef
/PRR {MRR fill } bdef
/MlrRR {/lry xdef /lrx xdef /uly xdef /ulx xdef /rad lry uly sub 2 div def
  newpath tMatrix currentmatrix pop ulx rad add uly rad add translate
  rad rad scale 0 0 1 90 270 arc tMatrix setmatrix lrx rad sub lry rad
  sub translate rad rad scale 0 0 1 270 90 arc tMatrix setmatrix
  closepath} bdef
/FlrRR {MlrRR stroke } bdef
/PlrRR {MlrRR fill } bdef
/MtbRR {/lry xdef /lrx xdef /uly xdef /ulx xdef /rad lrx ulx sub 2 div def
  newpath tMatrix currentmatrix pop ulx rad add uly rad add translate
  rad rad scale 0 0 1 180 360 arc tMatrix setmatrix lrx rad sub lry rad
  sub translate rad rad scale 0 0 1 0 180 arc tMatrix setmatrix
  closepath} bdef
/FtbRR {MtbRR stroke } bdef
/PtbRR {MtbRR fill } bdef
/stri 6 array def /dtri 6 array def
/smat 6 array def /dmat 6 array def
/tmat1 6 array def /tmat2 6 array def /dif 3 array def
/asub {/ind2 exch def /ind1 exch def dup dup
  ind1 get exch ind2 get sub exch } bdef
/tri_to_matrix {
  2 0 asub 3 1 asub 4 0 asub 5 1 asub
  dup 0 get exch 1 get 7 -1 roll astore } bdef
/compute_transform {
  dmat dtri tri_to_matrix tmat1 invertmatrix 
  smat stri tri_to_matrix tmat2 concatmatrix } bdef
/ds {stri astore pop} bdef
/dt {dtri astore pop} bdef
/db {2 copy /cols xdef /rows xdef mul dup 3 mul string
  currentfile 
  3 index 0 eq {/ASCIIHexDecode filter}
  {/ASCII85Decode filter 3 index 2 eq {/RunLengthDecode filter} if }
  ifelse exch readstring pop
  dup 0 3 index getinterval /rbmap xdef
  dup 2 index dup getinterval /gbmap xdef
  1 index dup 2 mul exch getinterval /bbmap xdef pop pop}bdef
/it {gs np dtri aload pop moveto lineto lineto cp c
  cols rows 8 compute_transform 
  rbmap gbmap bbmap true 3 colorimage gr}bdef
/il {newpath moveto lineto stroke}bdef
currentdict end def
%%EndProlog

%%BeginSetup
MathWorks begin

0 cap

end
%%EndSetup

%%Page: 1 1
%%BeginPageSetup
%%PageBoundingBox:    87   262   507   578
MathWorks begin
bpage
%%EndPageSetup

%%BeginObject: obj1
bplot

/dpi2point 12 def
portraitMode 1044 6936 csm

    0     0  5045  3782 rc
86 dict begin %Colortable dictionary
/c0 { 0.000000 0.000000 0.000000 sr} bdef
/c1 { 1.000000 1.000000 1.000000 sr} bdef
/c2 { 0.900000 0.000000 0.000000 sr} bdef
/c3 { 0.000000 0.820000 0.000000 sr} bdef
/c4 { 0.000000 0.000000 0.800000 sr} bdef
/c5 { 0.910000 0.820000 0.320000 sr} bdef
/c6 { 1.000000 0.260000 0.820000 sr} bdef
/c7 { 0.000000 0.820000 0.820000 sr} bdef
c0
1 j
1 sg
   0    0 5046 3783 rf
6 w
0 2458 3910 0 0 -2458 656 3366 4 MP
PP
-3910 0 0 2458 3910 0 0 -2458 656 3366 5 MP stroke
4 w
DO
SO
6 w
0 sg
 656 3366 mt 4566 3366 L
 656 3366 mt  656  908 L
 656 3366 mt  656 3326 L
%%IncludeResource: font Helvetica
/Helvetica /WindowsLatin1Encoding 120 FMSR

 553 3511 mt 
(-6) s
1090 3366 mt 1090 3326 L
 987 3511 mt 
(-5) s
1524 3366 mt 1524 3326 L
1421 3511 mt 
(-4) s
1959 3366 mt 1959 3326 L
1856 3511 mt 
(-3) s
2393 3366 mt 2393 3326 L
2290 3511 mt 
(-2) s
2828 3366 mt 2828 3326 L
2725 3511 mt 
(-1) s
3262 3366 mt 3262 3326 L
3229 3511 mt 
(0) s
3697 3366 mt 3697 3326 L
3664 3511 mt 
(1) s
4131 3366 mt 4131 3326 L
4098 3511 mt 
(2) s
4566 3366 mt 4566 3326 L
4533 3511 mt 
(3) s
 656 3366 mt  695 3366 L
 555 3410 mt 
(0) s
 656 3058 mt  695 3058 L
 555 3102 mt 
(1) s
 656 2751 mt  695 2751 L
 555 2795 mt 
(2) s
 656 2444 mt  695 2444 L
 555 2488 mt 
(3) s
 656 2137 mt  695 2137 L
 555 2181 mt 
(4) s
 656 1829 mt  695 1829 L
 555 1873 mt 
(5) s
 656 1522 mt  695 1522 L
 555 1566 mt 
(6) s
 656 1215 mt  695 1215 L
 555 1259 mt 
(7) s
 656  908 mt  695  908 L
 555  952 mt 
(8) s
gs 656 908 3911 2459 rc
gr

gs 583 1281 4057 1808 rc
/c8 { 1.000000 0.000000 0.000000 sr} bdef
c8
 620 3014 mt  692 3014 L
 656 2978 mt  656 3050 L
1054 3014 mt 1126 3014 L
1090 2978 mt 1090 3050 L
1488 3014 mt 1560 3014 L
1524 2978 mt 1524 3050 L
1923 3014 mt 1995 3014 L
1959 2978 mt 1959 3050 L
2357 3015 mt 2429 3015 L
2393 2979 mt 2393 3051 L
2792 2985 mt 2864 2985 L
2828 2949 mt 2828 3021 L
3226 2439 mt 3298 2439 L
3262 2403 mt 3262 2475 L
3661 1592 mt 3733 1592 L
3697 1556 mt 3697 1628 L
4095 1379 mt 4167 1379 L
4131 1343 mt 4131 1415 L
4530 1354 mt 4602 1354 L
4566 1318 mt 4566 1390 L
 631 2989 mt  681 3039 L
 681 2989 mt  631 3039 L
1065 2989 mt 1115 3039 L
1115 2989 mt 1065 3039 L
1499 2989 mt 1549 3039 L
1549 2989 mt 1499 3039 L
1934 2989 mt 1984 3039 L
1984 2989 mt 1934 3039 L
2368 2990 mt 2418 3040 L
2418 2990 mt 2368 3040 L
2803 2960 mt 2853 3010 L
2853 2960 mt 2803 3010 L
3237 2414 mt 3287 2464 L
3287 2414 mt 3237 2464 L
3672 1567 mt 3722 1617 L
3722 1567 mt 3672 1617 L
4106 1354 mt 4156 1404 L
4156 1354 mt 4106 1404 L
4541 1329 mt 4591 1379 L
4591 1329 mt 4541 1379 L
gr

c8
gs 656 908 3911 2459 rc
gr

gs 583 1281 4057 1874 rc
/c9 { 0.000000 0.000000 1.000000 sr} bdef
c9
 620 3081 mt  692 3081 L
 656 3045 mt  656 3117 L
1054 3081 mt 1126 3081 L
1090 3045 mt 1090 3117 L
1488 3081 mt 1560 3081 L
1524 3045 mt 1524 3117 L
1923 3081 mt 1995 3081 L
1959 3045 mt 1959 3117 L
2357 3081 mt 2429 3081 L
2393 3045 mt 2393 3117 L
2792 3051 mt 2864 3051 L
2828 3015 mt 2828 3087 L
3226 2536 mt 3298 2536 L
3262 2500 mt 3262 2572 L
3661 1625 mt 3733 1625 L
3697 1589 mt 3697 1661 L
4095 1383 mt 4167 1383 L
4131 1347 mt 4131 1419 L
4530 1354 mt 4602 1354 L
4566 1318 mt 4566 1390 L
 631 3056 mt  681 3106 L
 681 3056 mt  631 3106 L
1065 3056 mt 1115 3106 L
1115 3056 mt 1065 3106 L
1499 3056 mt 1549 3106 L
1549 3056 mt 1499 3106 L
1934 3056 mt 1984 3106 L
1984 3056 mt 1934 3106 L
2368 3056 mt 2418 3106 L
2418 3056 mt 2368 3106 L
2803 3026 mt 2853 3076 L
2853 3026 mt 2803 3076 L
3237 2511 mt 3287 2561 L
3287 2511 mt 3237 2561 L
3672 1600 mt 3722 1650 L
3722 1600 mt 3672 1650 L
4106 1358 mt 4156 1408 L
4156 1358 mt 4106 1408 L
4541 1329 mt 4591 1379 L
4591 1329 mt 4541 1379 L
gr

c9
gs 656 908 3911 2459 rc
gr

gs 583 1061 4057 1982 rc
/c10 { 1.000000 0.000000 1.000000 sr} bdef
c10
 620 2966 mt  692 2966 L
 656 2930 mt  656 3002 L
1054 2966 mt 1126 2966 L
1090 2930 mt 1090 3002 L
1488 2966 mt 1560 2966 L
1524 2930 mt 1524 3002 L
1923 2966 mt 1995 2966 L
1959 2930 mt 1959 3002 L
2357 2969 mt 2429 2969 L
2393 2933 mt 2393 3005 L
2792 2940 mt 2864 2940 L
2828 2904 mt 2828 2976 L
3226 2241 mt 3298 2241 L
3262 2205 mt 3262 2277 L
3661 1348 mt 3733 1348 L
3697 1312 mt 3697 1384 L
4095 1155 mt 4167 1155 L
4131 1119 mt 4131 1191 L
4530 1134 mt 4602 1134 L
4566 1098 mt 4566 1170 L
 631 2941 mt  681 2991 L
 681 2941 mt  631 2991 L
1065 2941 mt 1115 2991 L
1115 2941 mt 1065 2991 L
1499 2941 mt 1549 2991 L
1549 2941 mt 1499 2991 L
1934 2941 mt 1984 2991 L
1984 2941 mt 1934 2991 L
2368 2944 mt 2418 2994 L
2418 2944 mt 2368 2994 L
2803 2915 mt 2853 2965 L
2853 2915 mt 2803 2965 L
3237 2216 mt 3287 2266 L
3287 2216 mt 3237 2266 L
3672 1323 mt 3722 1373 L
3722 1323 mt 3672 1373 L
4106 1130 mt 4156 1180 L
4156 1130 mt 4106 1180 L
4541 1109 mt 4591 1159 L
4591 1109 mt 4541 1159 L
gr

c10
gs 656 908 3911 2459 rc
gr

0 sg
 928  813 mt 
(Cross-validation with 100 training samples: best gamma = 10) s
%%IncludeResource: font Helvetica
/Helvetica /WindowsLatin1Encoding 96 FMSR

4192  753 mt 
(-) s
%%IncludeResource: font Helvetica
/Helvetica /WindowsLatin1Encoding 120 FMSR

4248  813 mt 
(2) s
 639 3409 mt 
( ) s
4550  950 mt 
( ) s
1 sg
0 480 1720 0 0 -480 1751 562 4 MP
PP
-1720 0 0 480 1720 0 0 -480 1751 562 5 MP stroke
4 w
DO
SO
6 w
0 sg
1751   82 mt 3471   82 L
1751  562 mt 3471  562 L
3471  562 mt 3471   82 L
1751  562 mt 1751   82 L
1751  562 mt 3471  562 L
1751  562 mt 1751   82 L
1751   82 mt 3471   82 L
1751  562 mt 3471  562 L
3471  562 mt 3471   82 L
1751  562 mt 1751   82 L
2235  217 mt 
(Cross-validation score) s
gs 1751 82 1721 481 rc
gs 1938 101 147 147 rc
c8
1975  174 mt 2047  174 L
2011  138 mt 2011  210 L
1986  149 mt 2036  199 L
2036  149 mt 1986  199 L
gr

c8
gr

c8
0 sg
2235  365 mt 
(Training set error) s
gs 1751 82 1721 481 rc
gs 1938 249 147 147 rc
c9
1975  322 mt 2047  322 L
2011  286 mt 2011  358 L
1986  297 mt 2036  347 L
2036  297 mt 1986  347 L
gr

c9
gr

c9
0 sg
2235  513 mt 
(Test set error) s
gs 1751 82 1721 481 rc
gs 1938 396 147 147 rc
c10
1975  469 mt 2047  469 L
2011  433 mt 2011  505 L
1986  444 mt 2036  494 L
2036  444 mt 1986  494 L
gr

c10
gr

c10

end %%Color Dict

eplot
%%EndObject

epage
end

showpage

%%Trailer
%%EOF
