%!PS-Adobe-3.0 EPSF-3.0
%%Creator: MATLAB, The MathWorks, Inc. Version 7.12.0.635 (R2011a). Operating System: Microsoft Windows 7.
%%Title: C:\Users\prennert\phd\courses\sl\courseworks\sl1\doc\images\6b3.eps
%%CreationDate: 11/17/2011  21:26:14
%%DocumentNeededFonts: Helvetica
%%DocumentProcessColors: Cyan Magenta Yellow Black
%%LanguageLevel: 2
%%Pages: 1
%%BoundingBox:    87   262   507   578
%%EndComments

%%BeginProlog
% MathWorks dictionary
/MathWorks 160 dict begin
% definition operators
/bdef {bind def} bind def
/ldef {load def} bind def
/xdef {exch def} bdef
/xstore {exch store} bdef
% operator abbreviations
/c  /clip ldef
/cc /concat ldef
/cp /closepath ldef
/gr /grestore ldef
/gs /gsave ldef
/mt /moveto ldef
/np /newpath ldef
/cm /currentmatrix ldef
/sm /setmatrix ldef
/rm /rmoveto ldef
/rl /rlineto ldef
/s {show newpath} bdef
/sc {setcmykcolor} bdef
/sr /setrgbcolor ldef
/sg /setgray ldef
/w /setlinewidth ldef
/j /setlinejoin ldef
/cap /setlinecap ldef
/rc {rectclip} bdef
/rf {rectfill} bdef
% page state control
/pgsv () def
/bpage {/pgsv save def} bdef
/epage {pgsv restore} bdef
/bplot /gsave ldef
/eplot {stroke grestore} bdef
% orientation switch
/portraitMode 0 def /landscapeMode 1 def /rotateMode 2 def
% coordinate system mappings
/dpi2point 0 def
% font control
/FontSize 0 def
/FMS {/FontSize xstore findfont [FontSize 0 0 FontSize neg 0 0]
  makefont setfont} bdef
/ISOLatin1Encoding where {pop /WindowsLatin1Encoding 256 array bdef
ISOLatin1Encoding WindowsLatin1Encoding copy pop
/.notdef/.notdef/quotesinglbase/florin/quotedblbase/ellipsis/dagger
/daggerdbl/circumflex/perthousand/Scaron/guilsinglleft/OE/.notdef/.notdef
/.notdef/.notdef/quoteleft/quoteright/quotedblleft/quotedblright/bullet
/endash/emdash/tilde/trademark/scaron/guilsinglright/oe/.notdef/.notdef
/Ydieresis WindowsLatin1Encoding 128 32 getinterval astore pop}
{/WindowsLatin1Encoding StandardEncoding bdef} ifelse
/reencode {exch dup where {pop load} {pop StandardEncoding} ifelse
  exch dup 3 1 roll findfont dup length dict begin
  { 1 index /FID ne {def}{pop pop} ifelse } forall
  /Encoding exch def currentdict end definefont pop} bdef
/isroman {findfont /CharStrings get /Agrave known} bdef
/FMSR {3 1 roll 1 index dup isroman {reencode} {pop pop} ifelse
  exch FMS} bdef
/csm {1 dpi2point div -1 dpi2point div scale neg translate
 dup landscapeMode eq {pop -90 rotate}
  {rotateMode eq {90 rotate} if} ifelse} bdef
% line types: solid, dotted, dashed, dotdash
/SO { [] 0 setdash } bdef
/DO { [.5 dpi2point mul 4 dpi2point mul] 0 setdash } bdef
/DA { [6 dpi2point mul] 0 setdash } bdef
/DD { [.5 dpi2point mul 4 dpi2point mul 6 dpi2point mul 4
  dpi2point mul] 0 setdash } bdef
% macros for lines and objects
/L {lineto stroke} bdef
/MP {3 1 roll moveto 1 sub {rlineto} repeat} bdef
/AP {{rlineto} repeat} bdef
/PDlw -1 def
/W {/PDlw currentlinewidth def setlinewidth} def
/PP {closepath eofill} bdef
/DP {closepath stroke} bdef
/MR {4 -2 roll moveto dup  0 exch rlineto exch 0 rlineto
  neg 0 exch rlineto closepath} bdef
/FR {MR stroke} bdef
/PR {MR fill} bdef
/L1i {{currentfile picstr readhexstring pop} image} bdef
/tMatrix matrix def
/MakeOval {newpath tMatrix currentmatrix pop translate scale
0 0 1 0 360 arc tMatrix setmatrix} bdef
/FO {MakeOval stroke} bdef
/PO {MakeOval fill} bdef
/PD {currentlinewidth 2 div 0 360 arc fill
   PDlw -1 eq not {PDlw w /PDlw -1 def} if} def
/FA {newpath tMatrix currentmatrix pop translate scale
  0 0 1 5 -2 roll arc tMatrix setmatrix stroke} bdef
/PA {newpath tMatrix currentmatrix pop	translate 0 0 moveto scale
  0 0 1 5 -2 roll arc closepath tMatrix setmatrix fill} bdef
/FAn {newpath tMatrix currentmatrix pop translate scale
  0 0 1 5 -2 roll arcn tMatrix setmatrix stroke} bdef
/PAn {newpath tMatrix currentmatrix pop translate 0 0 moveto scale
  0 0 1 5 -2 roll arcn closepath tMatrix setmatrix fill} bdef
/vradius 0 def /hradius 0 def /lry 0 def
/lrx 0 def /uly 0 def /ulx 0 def /rad 0 def
/MRR {/vradius xdef /hradius xdef /lry xdef /lrx xdef /uly xdef
  /ulx xdef newpath tMatrix currentmatrix pop ulx hradius add uly
  vradius add translate hradius vradius scale 0 0 1 180 270 arc 
  tMatrix setmatrix lrx hradius sub uly vradius add translate
  hradius vradius scale 0 0 1 270 360 arc tMatrix setmatrix
  lrx hradius sub lry vradius sub translate hradius vradius scale
  0 0 1 0 90 arc tMatrix setmatrix ulx hradius add lry vradius sub
  translate hradius vradius scale 0 0 1 90 180 arc tMatrix setmatrix
  closepath} bdef
/FRR {MRR stroke } bdef
/PRR {MRR fill } bdef
/MlrRR {/lry xdef /lrx xdef /uly xdef /ulx xdef /rad lry uly sub 2 div def
  newpath tMatrix currentmatrix pop ulx rad add uly rad add translate
  rad rad scale 0 0 1 90 270 arc tMatrix setmatrix lrx rad sub lry rad
  sub translate rad rad scale 0 0 1 270 90 arc tMatrix setmatrix
  closepath} bdef
/FlrRR {MlrRR stroke } bdef
/PlrRR {MlrRR fill } bdef
/MtbRR {/lry xdef /lrx xdef /uly xdef /ulx xdef /rad lrx ulx sub 2 div def
  newpath tMatrix currentmatrix pop ulx rad add uly rad add translate
  rad rad scale 0 0 1 180 360 arc tMatrix setmatrix lrx rad sub lry rad
  sub translate rad rad scale 0 0 1 0 180 arc tMatrix setmatrix
  closepath} bdef
/FtbRR {MtbRR stroke } bdef
/PtbRR {MtbRR fill } bdef
/stri 6 array def /dtri 6 array def
/smat 6 array def /dmat 6 array def
/tmat1 6 array def /tmat2 6 array def /dif 3 array def
/asub {/ind2 exch def /ind1 exch def dup dup
  ind1 get exch ind2 get sub exch } bdef
/tri_to_matrix {
  2 0 asub 3 1 asub 4 0 asub 5 1 asub
  dup 0 get exch 1 get 7 -1 roll astore } bdef
/compute_transform {
  dmat dtri tri_to_matrix tmat1 invertmatrix 
  smat stri tri_to_matrix tmat2 concatmatrix } bdef
/ds {stri astore pop} bdef
/dt {dtri astore pop} bdef
/db {2 copy /cols xdef /rows xdef mul dup 3 mul string
  currentfile 
  3 index 0 eq {/ASCIIHexDecode filter}
  {/ASCII85Decode filter 3 index 2 eq {/RunLengthDecode filter} if }
  ifelse exch readstring pop
  dup 0 3 index getinterval /rbmap xdef
  dup 2 index dup getinterval /gbmap xdef
  1 index dup 2 mul exch getinterval /bbmap xdef pop pop}bdef
/it {gs np dtri aload pop moveto lineto lineto cp c
  cols rows 8 compute_transform 
  rbmap gbmap bbmap true 3 colorimage gr}bdef
/il {newpath moveto lineto stroke}bdef
currentdict end def
%%EndProlog

%%BeginSetup
MathWorks begin

0 cap

end
%%EndSetup

%%Page: 1 1
%%BeginPageSetup
%%PageBoundingBox:    87   262   507   578
MathWorks begin
bpage
%%EndPageSetup

%%BeginObject: obj1
bplot

/dpi2point 12 def
portraitMode 1044 6936 csm

    0     0  5045  3782 rc
86 dict begin %Colortable dictionary
/c0 { 0.000000 0.000000 0.000000 sr} bdef
/c1 { 1.000000 1.000000 1.000000 sr} bdef
/c2 { 0.900000 0.000000 0.000000 sr} bdef
/c3 { 0.000000 0.820000 0.000000 sr} bdef
/c4 { 0.000000 0.000000 0.800000 sr} bdef
/c5 { 0.910000 0.820000 0.320000 sr} bdef
/c6 { 1.000000 0.260000 0.820000 sr} bdef
/c7 { 0.000000 0.820000 0.820000 sr} bdef
c0
1 j
1 sg
   0    0 5046 3783 rf
6 w
0 2458 3910 0 0 -2458 656 3366 4 MP
PP
-3910 0 0 2458 3910 0 0 -2458 656 3366 5 MP stroke
4 w
DO
SO
6 w
0 sg
 656 3366 mt 4566 3366 L
 656 3366 mt  656  908 L
 656 3366 mt  656 3326 L
%%IncludeResource: font Helvetica
/Helvetica /WindowsLatin1Encoding 120 FMSR

 553 3511 mt 
(-6) s
1090 3366 mt 1090 3326 L
 987 3511 mt 
(-5) s
1524 3366 mt 1524 3326 L
1421 3511 mt 
(-4) s
1959 3366 mt 1959 3326 L
1856 3511 mt 
(-3) s
2393 3366 mt 2393 3326 L
2290 3511 mt 
(-2) s
2828 3366 mt 2828 3326 L
2725 3511 mt 
(-1) s
3262 3366 mt 3262 3326 L
3229 3511 mt 
(0) s
3697 3366 mt 3697 3326 L
3664 3511 mt 
(1) s
4131 3366 mt 4131 3326 L
4098 3511 mt 
(2) s
4566 3366 mt 4566 3326 L
4533 3511 mt 
(3) s
 656 3366 mt  695 3366 L
 555 3410 mt 
(0) s
 656 2956 mt  695 2956 L
 555 3000 mt 
(5) s
 656 2546 mt  695 2546 L
 488 2590 mt 
(10) s
 656 2137 mt  695 2137 L
 488 2181 mt 
(15) s
 656 1727 mt  695 1727 L
 488 1771 mt 
(20) s
 656 1317 mt  695 1317 L
 488 1361 mt 
(25) s
 656  908 mt  695  908 L
 488  952 mt 
(30) s
gs 656 908 3911 2459 rc
gr

gs 583 1004 4057 2166 rc
/c8 { 1.000000 0.000000 0.000000 sr} bdef
c8
 620 2670 mt  692 2670 L
 656 2634 mt  656 2706 L
1054 2671 mt 1126 2671 L
1090 2635 mt 1090 2707 L
1488 2676 mt 1560 2676 L
1524 2640 mt 1524 2712 L
1923 2721 mt 1995 2721 L
1959 2685 mt 1959 2757 L
2357 2919 mt 2429 2919 L
2393 2883 mt 2393 2955 L
2792 3096 mt 2864 3096 L
2828 3060 mt 2828 3132 L
3226 2332 mt 3298 2332 L
3262 2296 mt 3262 2368 L
3661 1310 mt 3733 1310 L
3697 1274 mt 3697 1346 L
4095 1100 mt 4167 1100 L
4131 1064 mt 4131 1136 L
4530 1077 mt 4602 1077 L
4566 1041 mt 4566 1113 L
 631 2645 mt  681 2695 L
 681 2645 mt  631 2695 L
1065 2646 mt 1115 2696 L
1115 2646 mt 1065 2696 L
1499 2651 mt 1549 2701 L
1549 2651 mt 1499 2701 L
1934 2696 mt 1984 2746 L
1984 2696 mt 1934 2746 L
2368 2894 mt 2418 2944 L
2418 2894 mt 2368 2944 L
2803 3071 mt 2853 3121 L
2853 3071 mt 2803 3121 L
3237 2307 mt 3287 2357 L
3287 2307 mt 3237 2357 L
3672 1285 mt 3722 1335 L
3722 1285 mt 3672 1335 L
4106 1075 mt 4156 1125 L
4156 1075 mt 4106 1125 L
4541 1052 mt 4591 1102 L
4591 1052 mt 4541 1102 L
gr

c8
gs 656 908 3911 2459 rc
gr

gs 583 1010 4057 2429 rc
/c9 { 0.000000 0.000000 1.000000 sr} bdef
c9
 620 3365 mt  692 3365 L
 656 3329 mt  656 3401 L
1054 3365 mt 1126 3365 L
1090 3329 mt 1090 3401 L
1488 3365 mt 1560 3365 L
1524 3329 mt 1524 3401 L
1923 3365 mt 1995 3365 L
1959 3329 mt 1959 3401 L
2357 3360 mt 2429 3360 L
2393 3324 mt 2393 3396 L
2792 3336 mt 2864 3336 L
2828 3300 mt 2828 3372 L
3226 3025 mt 3298 3025 L
3262 2989 mt 3262 3061 L
3661 1723 mt 3733 1723 L
3697 1687 mt 3697 1759 L
4095 1157 mt 4167 1157 L
4131 1121 mt 4131 1193 L
4530 1083 mt 4602 1083 L
4566 1047 mt 4566 1119 L
 631 3340 mt  681 3390 L
 681 3340 mt  631 3390 L
1065 3340 mt 1115 3390 L
1115 3340 mt 1065 3390 L
1499 3340 mt 1549 3390 L
1549 3340 mt 1499 3390 L
1934 3340 mt 1984 3390 L
1984 3340 mt 1934 3390 L
2368 3335 mt 2418 3385 L
2418 3335 mt 2368 3385 L
2803 3311 mt 2853 3361 L
2853 3311 mt 2803 3361 L
3237 3000 mt 3287 3050 L
3287 3000 mt 3237 3050 L
3672 1698 mt 3722 1748 L
3722 1698 mt 3672 1748 L
4106 1132 mt 4156 1182 L
4156 1132 mt 4106 1182 L
4541 1058 mt 4591 1108 L
4591 1058 mt 4541 1108 L
gr

c9
gs 656 908 3911 2459 rc
gr

gs 583 1555 4057 1668 rc
/c10 { 1.000000 0.000000 1.000000 sr} bdef
c10
 620 1628 mt  692 1628 L
 656 1592 mt  656 1664 L
1054 1633 mt 1126 1633 L
1090 1597 mt 1090 1669 L
1488 1683 mt 1560 1683 L
1524 1647 mt 1524 1719 L
1923 2069 mt 1995 2069 L
1959 2033 mt 1959 2105 L
2357 2935 mt 2429 2935 L
2393 2899 mt 2393 2971 L
2792 3149 mt 2864 3149 L
2828 3113 mt 2828 3185 L
3226 3079 mt 3298 3079 L
3262 3043 mt 3262 3115 L
3661 2698 mt 3733 2698 L
3697 2662 mt 3697 2734 L
4095 2531 mt 4167 2531 L
4131 2495 mt 4131 2567 L
4530 2509 mt 4602 2509 L
4566 2473 mt 4566 2545 L
 631 1603 mt  681 1653 L
 681 1603 mt  631 1653 L
1065 1608 mt 1115 1658 L
1115 1608 mt 1065 1658 L
1499 1658 mt 1549 1708 L
1549 1658 mt 1499 1708 L
1934 2044 mt 1984 2094 L
1984 2044 mt 1934 2094 L
2368 2910 mt 2418 2960 L
2418 2910 mt 2368 2960 L
2803 3124 mt 2853 3174 L
2853 3124 mt 2803 3174 L
3237 3054 mt 3287 3104 L
3287 3054 mt 3237 3104 L
3672 2673 mt 3722 2723 L
3722 2673 mt 3672 2723 L
4106 2506 mt 4156 2556 L
4156 2506 mt 4106 2556 L
4541 2484 mt 4591 2534 L
4591 2484 mt 4541 2534 L
gr

c10
gs 656 908 3911 2459 rc
gr

0 sg
 961  813 mt 
(Cross-validation with 10 training samples: best gamma = 10) s
%%IncludeResource: font Helvetica
/Helvetica /WindowsLatin1Encoding 96 FMSR

4158  753 mt 
(-) s
%%IncludeResource: font Helvetica
/Helvetica /WindowsLatin1Encoding 120 FMSR

4214  813 mt 
(1) s
 639 3409 mt 
( ) s
4550  950 mt 
( ) s
1 sg
0 480 1720 0 0 -480 1751 562 4 MP
PP
-1720 0 0 480 1720 0 0 -480 1751 562 5 MP stroke
4 w
DO
SO
6 w
0 sg
1751   82 mt 3471   82 L
1751  562 mt 3471  562 L
3471  562 mt 3471   82 L
1751  562 mt 1751   82 L
1751  562 mt 3471  562 L
1751  562 mt 1751   82 L
1751   82 mt 3471   82 L
1751  562 mt 3471  562 L
3471  562 mt 3471   82 L
1751  562 mt 1751   82 L
2235  217 mt 
(Cross-validation score) s
gs 1751 82 1721 481 rc
gs 1938 101 147 147 rc
c8
1975  174 mt 2047  174 L
2011  138 mt 2011  210 L
1986  149 mt 2036  199 L
2036  149 mt 1986  199 L
gr

c8
gr

c8
0 sg
2235  365 mt 
(Training set error) s
gs 1751 82 1721 481 rc
gs 1938 249 147 147 rc
c9
1975  322 mt 2047  322 L
2011  286 mt 2011  358 L
1986  297 mt 2036  347 L
2036  297 mt 1986  347 L
gr

c9
gr

c9
0 sg
2235  513 mt 
(Test set error) s
gs 1751 82 1721 481 rc
gs 1938 396 147 147 rc
c10
1975  469 mt 2047  469 L
2011  433 mt 2011  505 L
1986  444 mt 2036  494 L
2036  444 mt 1986  494 L
gr

c10
gr

c10

end %%Color Dict

eplot
%%EndObject

epage
end

showpage

%%Trailer
%%EOF
