%!PS-Adobe-3.0 EPSF-3.0
%%Creator: MATLAB, The MathWorks, Inc. Version 7.12.0.635 (R2011a). Operating System: Microsoft Windows 7.
%%Title: C:\Users\prennert\phd\courses\mv\courseworks\cw1\doc\images\C2.eps
%%CreationDate: 11/13/2011  15:38:16
%%DocumentNeededFonts: Helvetica
%%DocumentProcessColors: Cyan Magenta Yellow Black
%%LanguageLevel: 2
%%Pages: 1
%%BoundingBox:    87   262   507   578
%%EndComments

%%BeginProlog
% MathWorks dictionary
/MathWorks 160 dict begin
% definition operators
/bdef {bind def} bind def
/ldef {load def} bind def
/xdef {exch def} bdef
/xstore {exch store} bdef
% operator abbreviations
/c  /clip ldef
/cc /concat ldef
/cp /closepath ldef
/gr /grestore ldef
/gs /gsave ldef
/mt /moveto ldef
/np /newpath ldef
/cm /currentmatrix ldef
/sm /setmatrix ldef
/rm /rmoveto ldef
/rl /rlineto ldef
/s {show newpath} bdef
/sc {setcmykcolor} bdef
/sr /setrgbcolor ldef
/sg /setgray ldef
/w /setlinewidth ldef
/j /setlinejoin ldef
/cap /setlinecap ldef
/rc {rectclip} bdef
/rf {rectfill} bdef
% page state control
/pgsv () def
/bpage {/pgsv save def} bdef
/epage {pgsv restore} bdef
/bplot /gsave ldef
/eplot {stroke grestore} bdef
% orientation switch
/portraitMode 0 def /landscapeMode 1 def /rotateMode 2 def
% coordinate system mappings
/dpi2point 0 def
% font control
/FontSize 0 def
/FMS {/FontSize xstore findfont [FontSize 0 0 FontSize neg 0 0]
  makefont setfont} bdef
/ISOLatin1Encoding where {pop /WindowsLatin1Encoding 256 array bdef
ISOLatin1Encoding WindowsLatin1Encoding copy pop
/.notdef/.notdef/quotesinglbase/florin/quotedblbase/ellipsis/dagger
/daggerdbl/circumflex/perthousand/Scaron/guilsinglleft/OE/.notdef/.notdef
/.notdef/.notdef/quoteleft/quoteright/quotedblleft/quotedblright/bullet
/endash/emdash/tilde/trademark/scaron/guilsinglright/oe/.notdef/.notdef
/Ydieresis WindowsLatin1Encoding 128 32 getinterval astore pop}
{/WindowsLatin1Encoding StandardEncoding bdef} ifelse
/reencode {exch dup where {pop load} {pop StandardEncoding} ifelse
  exch dup 3 1 roll findfont dup length dict begin
  { 1 index /FID ne {def}{pop pop} ifelse } forall
  /Encoding exch def currentdict end definefont pop} bdef
/isroman {findfont /CharStrings get /Agrave known} bdef
/FMSR {3 1 roll 1 index dup isroman {reencode} {pop pop} ifelse
  exch FMS} bdef
/csm {1 dpi2point div -1 dpi2point div scale neg translate
 dup landscapeMode eq {pop -90 rotate}
  {rotateMode eq {90 rotate} if} ifelse} bdef
% line types: solid, dotted, dashed, dotdash
/SO { [] 0 setdash } bdef
/DO { [.5 dpi2point mul 4 dpi2point mul] 0 setdash } bdef
/DA { [6 dpi2point mul] 0 setdash } bdef
/DD { [.5 dpi2point mul 4 dpi2point mul 6 dpi2point mul 4
  dpi2point mul] 0 setdash } bdef
% macros for lines and objects
/L {lineto stroke} bdef
/MP {3 1 roll moveto 1 sub {rlineto} repeat} bdef
/AP {{rlineto} repeat} bdef
/PDlw -1 def
/W {/PDlw currentlinewidth def setlinewidth} def
/PP {closepath eofill} bdef
/DP {closepath stroke} bdef
/MR {4 -2 roll moveto dup  0 exch rlineto exch 0 rlineto
  neg 0 exch rlineto closepath} bdef
/FR {MR stroke} bdef
/PR {MR fill} bdef
/L1i {{currentfile picstr readhexstring pop} image} bdef
/tMatrix matrix def
/MakeOval {newpath tMatrix currentmatrix pop translate scale
0 0 1 0 360 arc tMatrix setmatrix} bdef
/FO {MakeOval stroke} bdef
/PO {MakeOval fill} bdef
/PD {currentlinewidth 2 div 0 360 arc fill
   PDlw -1 eq not {PDlw w /PDlw -1 def} if} def
/FA {newpath tMatrix currentmatrix pop translate scale
  0 0 1 5 -2 roll arc tMatrix setmatrix stroke} bdef
/PA {newpath tMatrix currentmatrix pop	translate 0 0 moveto scale
  0 0 1 5 -2 roll arc closepath tMatrix setmatrix fill} bdef
/FAn {newpath tMatrix currentmatrix pop translate scale
  0 0 1 5 -2 roll arcn tMatrix setmatrix stroke} bdef
/PAn {newpath tMatrix currentmatrix pop translate 0 0 moveto scale
  0 0 1 5 -2 roll arcn closepath tMatrix setmatrix fill} bdef
/vradius 0 def /hradius 0 def /lry 0 def
/lrx 0 def /uly 0 def /ulx 0 def /rad 0 def
/MRR {/vradius xdef /hradius xdef /lry xdef /lrx xdef /uly xdef
  /ulx xdef newpath tMatrix currentmatrix pop ulx hradius add uly
  vradius add translate hradius vradius scale 0 0 1 180 270 arc 
  tMatrix setmatrix lrx hradius sub uly vradius add translate
  hradius vradius scale 0 0 1 270 360 arc tMatrix setmatrix
  lrx hradius sub lry vradius sub translate hradius vradius scale
  0 0 1 0 90 arc tMatrix setmatrix ulx hradius add lry vradius sub
  translate hradius vradius scale 0 0 1 90 180 arc tMatrix setmatrix
  closepath} bdef
/FRR {MRR stroke } bdef
/PRR {MRR fill } bdef
/MlrRR {/lry xdef /lrx xdef /uly xdef /ulx xdef /rad lry uly sub 2 div def
  newpath tMatrix currentmatrix pop ulx rad add uly rad add translate
  rad rad scale 0 0 1 90 270 arc tMatrix setmatrix lrx rad sub lry rad
  sub translate rad rad scale 0 0 1 270 90 arc tMatrix setmatrix
  closepath} bdef
/FlrRR {MlrRR stroke } bdef
/PlrRR {MlrRR fill } bdef
/MtbRR {/lry xdef /lrx xdef /uly xdef /ulx xdef /rad lrx ulx sub 2 div def
  newpath tMatrix currentmatrix pop ulx rad add uly rad add translate
  rad rad scale 0 0 1 180 360 arc tMatrix setmatrix lrx rad sub lry rad
  sub translate rad rad scale 0 0 1 0 180 arc tMatrix setmatrix
  closepath} bdef
/FtbRR {MtbRR stroke } bdef
/PtbRR {MtbRR fill } bdef
/stri 6 array def /dtri 6 array def
/smat 6 array def /dmat 6 array def
/tmat1 6 array def /tmat2 6 array def /dif 3 array def
/asub {/ind2 exch def /ind1 exch def dup dup
  ind1 get exch ind2 get sub exch } bdef
/tri_to_matrix {
  2 0 asub 3 1 asub 4 0 asub 5 1 asub
  dup 0 get exch 1 get 7 -1 roll astore } bdef
/compute_transform {
  dmat dtri tri_to_matrix tmat1 invertmatrix 
  smat stri tri_to_matrix tmat2 concatmatrix } bdef
/ds {stri astore pop} bdef
/dt {dtri astore pop} bdef
/db {2 copy /cols xdef /rows xdef mul dup 3 mul string
  currentfile 
  3 index 0 eq {/ASCIIHexDecode filter}
  {/ASCII85Decode filter 3 index 2 eq {/RunLengthDecode filter} if }
  ifelse exch readstring pop
  dup 0 3 index getinterval /rbmap xdef
  dup 2 index dup getinterval /gbmap xdef
  1 index dup 2 mul exch getinterval /bbmap xdef pop pop}bdef
/it {gs np dtri aload pop moveto lineto lineto cp c
  cols rows 8 compute_transform 
  rbmap gbmap bbmap true 3 colorimage gr}bdef
/il {newpath moveto lineto stroke}bdef
currentdict end def
%%EndProlog

%%BeginSetup
MathWorks begin

0 cap

end
%%EndSetup

%%Page: 1 1
%%BeginPageSetup
%%PageBoundingBox:    87   262   507   578
MathWorks begin
bpage
%%EndPageSetup

%%BeginObject: obj1
bplot

/dpi2point 12 def
portraitMode 1044 6936 csm

    0     0  5045  3782 rc
88 dict begin %Colortable dictionary
/c0 { 0.000000 0.000000 0.000000 sr} bdef
/c1 { 1.000000 1.000000 1.000000 sr} bdef
/c2 { 0.900000 0.000000 0.000000 sr} bdef
/c3 { 0.000000 0.820000 0.000000 sr} bdef
/c4 { 0.000000 0.000000 0.800000 sr} bdef
/c5 { 0.910000 0.820000 0.320000 sr} bdef
/c6 { 1.000000 0.260000 0.820000 sr} bdef
/c7 { 0.000000 0.820000 0.820000 sr} bdef
c0
1 j
1 sg
   0    0 5046 3783 rf
6 w
gs 657 284 3908 3083 rc
gr

24 W
0 sg
3666 1676 PD
24 W
3826 1196 PD
24 W
3898 1630 PD
24 W
3145 2269 PD
24 W
2879 1945 PD
24 W
3974 1352 PD
24 W
2979 2461 PD
24 W
3774 959 PD
24 W
3606 895 PD
24 W
4009 1516 PD
24 W
2162 1846 PD
24 W
2920 2795 PD
24 W
3284 2752 PD
24 W
3649 803 PD
24 W
2820 3028 PD
24 W
3226 2394 PD
24 W
2576 2020 PD
24 W
2218 1774 PD
24 W
966 2117 PD
24 W
3082 2345 PD
24 W
3780 1587 PD
24 W
3832 1512 PD
24 W
3706 1194 PD
24 W
3777 1864 PD
24 W
3943 1372 PD
24 W
3871 1423 PD
24 W
3197 2453 PD
24 W
3860 1576 PD
24 W
3578 1056 PD
24 W
3949 1705 PD
24 W
3852 1446 PD
24 W
4058 1268 PD
24 W
2780 2831 PD
24 W
2581 2751 PD
24 W
3184 2230 PD
24 W
3912 1188 PD
24 W
3636 837 PD
24 W
4096 1802 PD
24 W
3700 968 PD
24 W
3057 2485 PD
24 W
3575 1196 PD
24 W
3908 1065 PD
24 W
3336 2176 PD
24 W
3256 2589 PD
24 W
3644 1297 PD
24 W
3204 2601 PD
24 W
3083 2596 PD
24 W
4004 1668 PD
24 W
3864 1534 PD
24 W
2929 2286 PD
24 W
2716 2590 PD
24 W
2881 2965 PD
24 W
3645 1027 PD
24 W
3373 1942 PD
24 W
2858 2166 PD
24 W
1648 2204 PD
24 W
3910 1144 PD
24 W
3625 1042 PD
24 W
3748 1507 PD
24 W
2363 1935 PD
24 W
2814 2820 PD
24 W
3403 449 PD
24 W
2558 1882 PD
24 W
2764 2951 PD
24 W
3336 2211 PD
24 W
3893 1051 PD
24 W
3064 2785 PD
24 W
2904 2400 PD
24 W
3248 2418 PD
24 W
3505 932 PD
24 W
3502 453 PD
24 W
2316 2000 PD
24 W
3754 1344 PD
24 W
1979 1999 PD
24 W
3584 1087 PD
24 W
3740 817 PD
24 W
2818 2632 PD
24 W
3891 1336 PD
24 W
3525 846 PD
24 W
3591 624 PD
24 W
4030 1663 PD
24 W
2972 2383 PD
24 W
2739 2686 PD
24 W
3955 1318 PD
24 W
3517 946 PD
24 W
2240 2021 PD
24 W
2728 2742 PD
24 W
3475 1898 PD
24 W
3884 1150 PD
24 W
3739 1164 PD
24 W
2704 2039 PD
24 W
3594 826 PD
24 W
2531 2071 PD
24 W
2903 2661 PD
24 W
2248 2162 PD
24 W
3917 1298 PD
24 W
3658 1075 PD
24 W
2941 2873 PD
24 W
2639 2150 PD
24 W
3870 1264 PD
24 W
4171 1394 PD
24 W
1945 1863 PD
24 W
3779 1076 PD
24 W
3192 2473 PD
24 W
2199 2136 PD
24 W
2885 1802 PD
24 W
4203 2060 PD
24 W
2015 2066 PD
24 W
4002 1269 PD
24 W
3472 900 PD
24 W
2802 3203 PD
24 W
3893 1256 PD
24 W
3918 1281 PD
24 W
3116 2610 PD
24 W
2034 1814 PD
24 W
2148 2107 PD
24 W
3792 1370 PD
24 W
3960 1606 PD
24 W
3169 2638 PD
24 W
4181 1457 PD
24 W
3731 879 PD
24 W
3151 2420 PD
24 W
2944 2640 PD
24 W
3200 2344 PD
24 W
4034 1389 PD
24 W
3750 659 PD
24 W
3151 2656 PD
24 W
2357 1847 PD
24 W
2978 2708 PD
24 W
1911 2053 PD
24 W
3959 1524 PD
24 W
2809 2483 PD
24 W
2923 2829 PD
24 W
2942 2744 PD
24 W
2719 2393 PD
24 W
2854 2042 PD
24 W
3915 1215 PD
24 W
3791 1403 PD
24 W
3081 2373 PD
24 W
3290 2813 PD
24 W
3817 1085 PD
24 W
2716 1943 PD
24 W
3248 2184 PD
24 W
2622 2995 PD
24 W
3843 1566 PD
24 W
3804 1431 PD
24 W
1849 2106 PD
24 W
3614 1008 PD
24 W
3875 1574 PD
24 W
2158 1975 PD
24 W
3789 652 PD
24 W
4135 1483 PD
24 W
3477 1846 PD
24 W
2568 3366 PD
24 W
2957 3156 PD
24 W
1601 2196 PD
24 W
2811 1713 PD
24 W
2843 3223 PD
24 W
3749 994 PD
24 W
3343 2500 PD
24 W
3812 1161 PD
24 W
3078 2788 PD
24 W
3066 2372 PD
24 W
3017 2241 PD
24 W
3012 2634 PD
24 W
3852 1221 PD
24 W
1765 2101 PD
24 W
2129 1790 PD
24 W
3164 1957 PD
24 W
3089 1872 PD
24 W
3686 1052 PD
24 W
3894 1177 PD
24 W
3603 1112 PD
24 W
2841 2483 PD
24 W
3543 823 PD
24 W
3175 2970 PD
24 W
3969 994 PD
24 W
2051 1841 PD
24 W
1529 2032 PD
24 W
4042 1408 PD
24 W
3289 2437 PD
24 W
3807 1527 PD
24 W
2949 2612 PD
24 W
2724 3099 PD
24 W
3653 1056 PD
24 W
3253 2161 PD
24 W
1662 1930 PD
24 W
2861 2680 PD
24 W
2889 2635 PD
24 W
3465 2190 PD
24 W
4050 1750 PD
24 W
2928 2156 PD
24 W
3885 1157 PD
24 W
4052 1980 PD
24 W
3177 2464 PD
24 W
2974 2340 PD
24 W
3542 681 PD
24 W
3725 824 PD
24 W
3742 1224 PD
24 W
3005 2498 PD
24 W
2766 2595 PD
24 W
3693 937 PD
24 W
3104 2461 PD
24 W
3068 2300 PD
24 W
3583 603 PD
24 W
3816 773 PD
24 W
2794 2506 PD
24 W
3093 2629 PD
24 W
4065 1752 PD
24 W
2307 1847 PD
24 W
3768 1158 PD
24 W
3433 959 PD
24 W
3208 2559 PD
24 W
3943 1734 PD
24 W
3799 1507 PD
24 W
2228 1918 PD
24 W
3570 2266 PD
24 W
4006 1205 PD
24 W
3181 2414 PD
24 W
3824 1325 PD
24 W
1580 1882 PD
24 W
3645 733 PD
24 W
3683 958 PD
24 W
2600 1963 PD
24 W
3934 1267 PD
24 W
3538 435 PD
24 W
2708 2009 PD
24 W
3675 812 PD
24 W
2998 2290 PD
24 W
2506 1837 PD
24 W
2822 3010 PD
24 W
2419 2040 PD
24 W
2972 3029 PD
24 W
3890 1431 PD
24 W
3687 1223 PD
24 W
2382 1992 PD
24 W
3428 2389 PD
24 W
3128 2579 PD
24 W
1454 2034 PD
24 W
3943 1284 PD
24 W
3080 2469 PD
24 W
3787 1305 PD
24 W
3164 2678 PD
24 W
4030 1367 PD
24 W
3971 1564 PD
24 W
4096 1304 PD
24 W
3530 1043 PD
24 W
3883 1437 PD
24 W
3105 2933 PD
24 W
3897 872 PD
24 W
2717 1860 PD
24 W
2791 2684 PD
24 W
2721 1876 PD
24 W
2689 1831 PD
24 W
3907 1561 PD
24 W
3237 2323 PD
24 W
3670 1009 PD
24 W
3100 2584 PD
24 W
3513 1357 PD
24 W
3534 1111 PD
24 W
2603 2038 PD
24 W
3016 2513 PD
24 W
3832 1075 PD
24 W
3433 716 PD
24 W
3982 1581 PD
24 W
3734 1392 PD
24 W
2845 2544 PD
24 W
3894 1129 PD
24 W
3224 1611 PD
24 W
3667 978 PD
24 W
1989 1906 PD
24 W
2937 2800 PD
24 W
3643 819 PD
24 W
3083 2543 PD
24 W
3098 2491 PD
24 W
2584 2663 PD
24 W
4255 1463 PD
24 W
2833 3046 PD
24 W
3881 1233 PD
24 W
1929 1911 PD
24 W
3140 2736 PD
24 W
2224 2069 PD
24 W
3980 1913 PD
24 W
2647 1885 PD
24 W
3320 450 PD
24 W
3345 3071 PD
24 W
2797 2681 PD
24 W
3670 640 PD
24 W
3965 1221 PD
24 W
4050 1328 PD
24 W
3541 647 PD
24 W
3914 1268 PD
24 W
2982 2857 PD
24 W
3802 1130 PD
24 W
3911 1645 PD
24 W
3882 1574 PD
24 W
4156 1471 PD
24 W
2262 1983 PD
24 W
3738 1135 PD
24 W
3825 1536 PD
24 W
2987 2926 PD
24 W
3278 2226 PD
24 W
3770 1442 PD
24 W
3890 1394 PD
24 W
3204 2301 PD
24 W
3270 2473 PD
24 W
4031 1394 PD
24 W
3782 1082 PD
24 W
3727 1459 PD
24 W
2246 2101 PD
24 W
3598 971 PD
24 W
1460 2165 PD
24 W
4166 1368 PD
24 W
3091 2103 PD
24 W
3097 2404 PD
24 W
2755 3074 PD
24 W
3159 2169 PD
24 W
2085 2040 PD
24 W
3864 1240 PD
24 W
3133 2552 PD
24 W
2933 2050 PD
24 W
3128 2598 PD
24 W
3611 549 PD
24 W
2940 2996 PD
24 W
4056 1531 PD
24 W
3826 868 PD
24 W
2044 1977 PD
24 W
3061 2435 PD
24 W
3929 1295 PD
24 W
3781 819 PD
24 W
3998 1061 PD
24 W
3127 2826 PD
24 W
2852 2773 PD
24 W
2968 2781 PD
24 W
2975 2462 PD
24 W
3228 2995 PD
24 W
3807 1078 PD
24 W
3811 1106 PD
24 W
3793 1285 PD
24 W
1984 1910 PD
24 W
2857 3006 PD
24 W
3680 1611 PD
24 W
3342 2503 PD
24 W
3739 1205 PD
24 W
2833 2485 PD
24 W
2240 2016 PD
24 W
3776 1213 PD
24 W
3775 1155 PD
24 W
2485 1999 PD
24 W
3797 1299 PD
24 W
2976 2431 PD
24 W
3610 1064 PD
24 W
3077 2881 PD
24 W
4153 1715 PD
24 W
3697 975 PD
24 W
3763 867 PD
24 W
3896 1265 PD
24 W
2460 1881 PD
24 W
3936 1313 PD
24 W
3310 284 PD
24 W
2790 2932 PD
24 W
3437 746 PD
24 W
3160 2231 PD
24 W
2857 2696 PD
24 W
3146 2689 PD
24 W
3719 863 PD
24 W
2509 2031 PD
24 W
3975 1665 PD
24 W
3470 1093 PD
24 W
3671 752 PD
24 W
3244 2232 PD
24 W
3134 2362 PD
24 W
1789 1869 PD
24 W
4003 1565 PD
24 W
2791 3015 PD
24 W
2984 2508 PD
24 W
3919 1111 PD
24 W
3159 1823 PD
24 W
3214 2426 PD
24 W
3617 976 PD
24 W
2719 3075 PD
24 W
2751 2887 PD
24 W
2227 2030 PD
24 W
3016 2729 PD
24 W
2976 2204 PD
24 W
3880 990 PD
24 W
3230 2854 PD
24 W
3127 2267 PD
24 W
3019 2753 PD
24 W
3142 2578 PD
24 W
3171 2759 PD
24 W
3057 2600 PD
24 W
3767 1464 PD
24 W
3329 2093 PD
24 W
3902 1346 PD
24 W
3815 873 PD
24 W
3035 2403 PD
24 W
2947 2720 PD
24 W
2990 2041 PD
24 W
3764 891 PD
gs 657 284 3908 3083 rc
24 w
0.747059 sg
58 -93 3170 1970 2 MP stroke
-96 -77 3228 1877 2 MP stroke
-160 -39 3132 1800 2 MP stroke
-143 -16 2972 1761 2 MP stroke
-110 -6 2829 1745 2 MP stroke
-84 -1 2719 1739 2 MP stroke
-64 0 2635 1738 2 MP stroke
-51 1 2571 1738 2 MP stroke
-42 2 2520 1739 2 MP stroke
-36 1 2478 1741 2 MP stroke
-31 2 2442 1742 2 MP stroke
-28 2 2411 1744 2 MP stroke
-26 1 2383 1746 2 MP stroke
-23 2 2357 1747 2 MP stroke
-23 2 2334 1749 2 MP stroke
-22 2 2311 1751 2 MP stroke
-22 2 2289 1753 2 MP stroke
-21 2 2267 1755 2 MP stroke
-23 2 2246 1757 2 MP stroke
-23 3 2223 1759 2 MP stroke
-25 3 2200 1762 2 MP stroke
-27 3 2175 1765 2 MP stroke
-30 4 2148 1768 2 MP stroke
-34 5 2118 1772 2 MP stroke
-40 5 2084 1777 2 MP stroke
-48 8 2044 1782 2 MP stroke
-59 10 1996 1790 2 MP stroke
-77 15 1937 1800 2 MP stroke
-99 23 1860 1815 2 MP stroke
-130 37 1761 1838 2 MP stroke
-152 61 1631 1875 2 MP stroke
-110 88 1479 1936 2 MP stroke
35 89 1369 2024 2 MP stroke
148 54 1404 2113 2 MP stroke
155 24 1552 2167 2 MP stroke
123 9 1707 2191 2 MP stroke
94 2 1830 2200 2 MP stroke
71 1 1924 2202 2 MP stroke
56 -1 1995 2203 2 MP stroke
46 -2 2051 2202 2 MP stroke
38 -1 2097 2200 2 MP stroke
33 -2 2135 2199 2 MP stroke
29 -2 2168 2197 2 MP stroke
26 -1 2197 2195 2 MP stroke
25 -2 2223 2194 2 MP stroke
23 -2 2248 2192 2 MP stroke
22 -2 2271 2190 2 MP stroke
21 -2 2293 2188 2 MP stroke
22 -2 2314 2186 2 MP stroke
22 -2 2336 2184 2 MP stroke
23 -2 2358 2182 2 MP stroke
24 -3 2381 2180 2 MP stroke
26 -3 2405 2177 2 MP stroke
29 -4 2431 2174 2 MP stroke
32 -4 2460 2170 2 MP stroke
37 -5 2492 2166 2 MP stroke
45 -7 2529 2161 2 MP stroke
54 -9 2574 2154 2 MP stroke
68 -13 2628 2145 2 MP stroke
89 -19 2696 2132 2 MP stroke
117 -30 2785 2113 2 MP stroke
147 -50 2902 2083 2 MP stroke
140 -78 3049 2033 2 MP stroke
0.486791 sg
-10 -25 4065 1196 2 MP stroke
-10 -24 4055 1171 2 MP stroke
-10 -23 4045 1147 2 MP stroke
-10 -22 4035 1124 2 MP stroke
-9 -22 4025 1102 2 MP stroke
-11 -22 4016 1080 2 MP stroke
-11 -23 4005 1058 2 MP stroke
-12 -24 3994 1035 2 MP stroke
-12 -25 3982 1011 2 MP stroke
-15 -27 3970 986 2 MP stroke
-16 -29 3955 959 2 MP stroke
-19 -33 3939 930 2 MP stroke
-23 -38 3920 897 2 MP stroke
-28 -43 3897 859 2 MP stroke
-35 -49 3869 816 2 MP stroke
-45 -57 3834 767 2 MP stroke
-57 -62 3789 710 2 MP stroke
-71 -60 3732 648 2 MP stroke
-79 -39 3661 588 2 MP stroke
-72 5 3582 549 2 MP stroke
-48 58 3510 554 2 MP stroke
-20 87 3462 612 2 MP stroke
0 92 3442 699 2 MP stroke
10 83 3442 791 2 MP stroke
13 69 3452 874 2 MP stroke
14 57 3465 943 2 MP stroke
13 49 3479 1000 2 MP stroke
13 41 3492 1049 2 MP stroke
11 35 3505 1090 2 MP stroke
11 32 3516 1125 2 MP stroke
11 28 3527 1157 2 MP stroke
10 26 3538 1185 2 MP stroke
10 24 3548 1211 2 MP stroke
10 23 3558 1235 2 MP stroke
9 23 3568 1258 2 MP stroke
10 22 3577 1281 2 MP stroke
10 22 3587 1303 2 MP stroke
11 22 3597 1325 2 MP stroke
11 23 3608 1347 2 MP stroke
13 25 3619 1370 2 MP stroke
13 26 3632 1395 2 MP stroke
16 28 3645 1421 2 MP stroke
18 32 3661 1449 2 MP stroke
21 35 3679 1481 2 MP stroke
26 41 3700 1516 2 MP stroke
31 46 3726 1557 2 MP stroke
41 54 3757 1603 2 MP stroke
51 61 3798 1657 2 MP stroke
65 62 3849 1718 2 MP stroke
77 51 3914 1780 2 MP stroke
78 15 3991 1831 2 MP stroke
60 -37 4069 1846 2 MP stroke
31 -78 4129 1809 2 MP stroke
6 -93 4160 1731 2 MP stroke
-6 -87 4166 1638 2 MP stroke
-12 -75 4160 1551 2 MP stroke
-14 -62 4148 1476 2 MP stroke
-14 -52 4134 1414 2 MP stroke
-13 -44 4120 1362 2 MP stroke
-12 -37 4107 1318 2 MP stroke
-11 -33 4095 1281 2 MP stroke
-11 -30 4084 1248 2 MP stroke
-10 -27 4073 1218 2 MP stroke
0.56615 sg
11 -35 3372 2582 2 MP stroke
11 -38 3383 2547 2 MP stroke
11 -42 3394 2509 2 MP stroke
9 -46 3405 2467 2 MP stroke
8 -51 3414 2421 2 MP stroke
5 -57 3422 2370 2 MP stroke
1 -63 3427 2313 2 MP stroke
-7 -66 3428 2250 2 MP stroke
-18 -67 3421 2184 2 MP stroke
-32 -60 3403 2117 2 MP stroke
-47 -44 3371 2057 2 MP stroke
-60 -21 3324 2013 2 MP stroke
-66 2 3264 1992 2 MP stroke
-66 21 3198 1994 2 MP stroke
-60 33 3132 2015 2 MP stroke
-52 39 3072 2048 2 MP stroke
-45 40 3020 2087 2 MP stroke
-37 39 2975 2127 2 MP stroke
-33 37 2938 2166 2 MP stroke
-27 36 2905 2203 2 MP stroke
-24 33 2878 2239 2 MP stroke
-22 32 2854 2272 2 MP stroke
-19 30 2832 2304 2 MP stroke
-17 29 2813 2334 2 MP stroke
-16 29 2796 2363 2 MP stroke
-14 28 2780 2392 2 MP stroke
-14 28 2766 2420 2 MP stroke
-13 29 2752 2448 2 MP stroke
-13 29 2739 2477 2 MP stroke
-12 30 2726 2506 2 MP stroke
-12 32 2714 2536 2 MP stroke
-11 34 2702 2568 2 MP stroke
-12 36 2691 2602 2 MP stroke
-10 40 2679 2638 2 MP stroke
-10 44 2669 2678 2 MP stroke
-9 49 2659 2722 2 MP stroke
-7 55 2650 2771 2 MP stroke
-2 60 2643 2826 2 MP stroke
3 65 2641 2886 2 MP stroke
13 68 2644 2951 2 MP stroke
26 63 2657 3019 2 MP stroke
41 52 2683 3082 2 MP stroke
55 31 2724 3134 2 MP stroke
65 8 2779 3165 2 MP stroke
66 -14 2844 3173 2 MP stroke
63 -29 2910 3159 2 MP stroke
55 -37 2973 3130 2 MP stroke
48 -40 3028 3093 2 MP stroke
40 -40 3076 3053 2 MP stroke
35 -38 3116 3013 2 MP stroke
29 -36 3151 2975 2 MP stroke
26 -34 3180 2939 2 MP stroke
22 -33 3206 2905 2 MP stroke
20 -31 3228 2872 2 MP stroke
18 -29 3248 2841 2 MP stroke
16 -29 3266 2812 2 MP stroke
15 -28 3282 2783 2 MP stroke
14 -28 3297 2755 2 MP stroke
14 -28 3311 2727 2 MP stroke
13 -29 3325 2699 2 MP stroke
12 -30 3338 2670 2 MP stroke
12 -31 3350 2640 2 MP stroke
12 -33 3362 2609 2 MP stroke
6 w
gr

0.56615 sg
24 W
0 sg
3666 1676 PD
24 W
3826 1196 PD
24 W
3898 1630 PD
24 W
3145 2269 PD
24 W
2879 1945 PD
24 W
3974 1352 PD
24 W
2979 2461 PD
24 W
3774 959 PD
24 W
3606 895 PD
24 W
4009 1516 PD
24 W
2162 1846 PD
24 W
2920 2795 PD
24 W
3284 2752 PD
24 W
3649 803 PD
24 W
2820 3028 PD
24 W
3226 2394 PD
24 W
2576 2020 PD
24 W
2218 1774 PD
24 W
966 2117 PD
24 W
3082 2345 PD
24 W
3780 1587 PD
24 W
3832 1512 PD
24 W
3706 1194 PD
24 W
3777 1864 PD
24 W
3943 1372 PD
24 W
3871 1423 PD
24 W
3197 2453 PD
24 W
3860 1576 PD
24 W
3578 1056 PD
24 W
3949 1705 PD
24 W
3852 1446 PD
24 W
4058 1268 PD
24 W
2780 2831 PD
24 W
2581 2751 PD
24 W
3184 2230 PD
24 W
3912 1188 PD
24 W
3636 837 PD
24 W
4096 1802 PD
24 W
3700 968 PD
24 W
3057 2485 PD
24 W
3575 1196 PD
24 W
3908 1065 PD
24 W
3336 2176 PD
24 W
3256 2589 PD
24 W
3644 1297 PD
24 W
3204 2601 PD
24 W
3083 2596 PD
24 W
4004 1668 PD
24 W
3864 1534 PD
24 W
2929 2286 PD
24 W
2716 2590 PD
24 W
2881 2965 PD
24 W
3645 1027 PD
24 W
3373 1942 PD
24 W
2858 2166 PD
24 W
1648 2204 PD
24 W
3910 1144 PD
24 W
3625 1042 PD
24 W
3748 1507 PD
24 W
2363 1935 PD
24 W
2814 2820 PD
24 W
3403 449 PD
24 W
2558 1882 PD
24 W
2764 2951 PD
24 W
3336 2211 PD
24 W
3893 1051 PD
24 W
3064 2785 PD
24 W
2904 2400 PD
24 W
3248 2418 PD
24 W
3505 932 PD
24 W
3502 453 PD
24 W
2316 2000 PD
24 W
3754 1344 PD
24 W
1979 1999 PD
24 W
3584 1087 PD
24 W
3740 817 PD
24 W
2818 2632 PD
24 W
3891 1336 PD
24 W
3525 846 PD
24 W
3591 624 PD
24 W
4030 1663 PD
24 W
2972 2383 PD
24 W
2739 2686 PD
24 W
3955 1318 PD
24 W
3517 946 PD
24 W
2240 2021 PD
24 W
2728 2742 PD
24 W
3475 1898 PD
24 W
3884 1150 PD
24 W
3739 1164 PD
24 W
2704 2039 PD
24 W
3594 826 PD
24 W
2531 2071 PD
24 W
2903 2661 PD
24 W
2248 2162 PD
24 W
3917 1298 PD
24 W
3658 1075 PD
24 W
2941 2873 PD
24 W
2639 2150 PD
24 W
3870 1264 PD
24 W
4171 1394 PD
24 W
1945 1863 PD
24 W
3779 1076 PD
24 W
3192 2473 PD
24 W
2199 2136 PD
24 W
2885 1802 PD
24 W
4203 2060 PD
24 W
2015 2066 PD
24 W
4002 1269 PD
24 W
3472 900 PD
24 W
2802 3203 PD
24 W
3893 1256 PD
24 W
3918 1281 PD
24 W
3116 2610 PD
24 W
2034 1814 PD
24 W
2148 2107 PD
24 W
3792 1370 PD
24 W
3960 1606 PD
24 W
3169 2638 PD
24 W
4181 1457 PD
24 W
3731 879 PD
24 W
3151 2420 PD
24 W
2944 2640 PD
24 W
3200 2344 PD
24 W
4034 1389 PD
24 W
3750 659 PD
24 W
3151 2656 PD
24 W
2357 1847 PD
24 W
2978 2708 PD
24 W
1911 2053 PD
24 W
3959 1524 PD
24 W
2809 2483 PD
24 W
2923 2829 PD
24 W
2942 2744 PD
24 W
2719 2393 PD
24 W
2854 2042 PD
24 W
3915 1215 PD
24 W
3791 1403 PD
24 W
3081 2373 PD
24 W
3290 2813 PD
24 W
3817 1085 PD
24 W
2716 1943 PD
24 W
3248 2184 PD
24 W
2622 2995 PD
24 W
3843 1566 PD
24 W
3804 1431 PD
24 W
1849 2106 PD
24 W
3614 1008 PD
24 W
3875 1574 PD
24 W
2158 1975 PD
24 W
3789 652 PD
24 W
4135 1483 PD
24 W
3477 1846 PD
24 W
2568 3366 PD
24 W
2957 3156 PD
24 W
1601 2196 PD
24 W
2811 1713 PD
24 W
2843 3223 PD
24 W
3749 994 PD
24 W
3343 2500 PD
24 W
3812 1161 PD
24 W
3078 2788 PD
24 W
3066 2372 PD
24 W
3017 2241 PD
24 W
3012 2634 PD
24 W
3852 1221 PD
24 W
1765 2101 PD
24 W
2129 1790 PD
24 W
3164 1957 PD
24 W
3089 1872 PD
24 W
3686 1052 PD
24 W
3894 1177 PD
24 W
3603 1112 PD
24 W
2841 2483 PD
24 W
3543 823 PD
24 W
3175 2970 PD
24 W
3969 994 PD
24 W
2051 1841 PD
24 W
1529 2032 PD
24 W
4042 1408 PD
24 W
3289 2437 PD
24 W
3807 1527 PD
24 W
2949 2612 PD
24 W
2724 3099 PD
24 W
3653 1056 PD
24 W
3253 2161 PD
24 W
1662 1930 PD
24 W
2861 2680 PD
24 W
2889 2635 PD
24 W
3465 2190 PD
24 W
4050 1750 PD
24 W
2928 2156 PD
24 W
3885 1157 PD
24 W
4052 1980 PD
24 W
3177 2464 PD
24 W
2974 2340 PD
24 W
3542 681 PD
24 W
3725 824 PD
24 W
3742 1224 PD
24 W
3005 2498 PD
24 W
2766 2595 PD
24 W
3693 937 PD
24 W
3104 2461 PD
24 W
3068 2300 PD
24 W
3583 603 PD
24 W
3816 773 PD
24 W
2794 2506 PD
24 W
3093 2629 PD
24 W
4065 1752 PD
24 W
2307 1847 PD
24 W
3768 1158 PD
24 W
3433 959 PD
24 W
3208 2559 PD
24 W
3943 1734 PD
24 W
3799 1507 PD
24 W
2228 1918 PD
24 W
3570 2266 PD
24 W
4006 1205 PD
24 W
3181 2414 PD
24 W
3824 1325 PD
24 W
1580 1882 PD
24 W
3645 733 PD
24 W
3683 958 PD
24 W
2600 1963 PD
24 W
3934 1267 PD
24 W
3538 435 PD
24 W
2708 2009 PD
24 W
3675 812 PD
24 W
2998 2290 PD
24 W
2506 1837 PD
24 W
2822 3010 PD
24 W
2419 2040 PD
24 W
2972 3029 PD
24 W
3890 1431 PD
24 W
3687 1223 PD
24 W
2382 1992 PD
24 W
3428 2389 PD
24 W
3128 2579 PD
24 W
1454 2034 PD
24 W
3943 1284 PD
24 W
3080 2469 PD
24 W
3787 1305 PD
24 W
3164 2678 PD
24 W
4030 1367 PD
24 W
3971 1564 PD
24 W
4096 1304 PD
24 W
3530 1043 PD
24 W
3883 1437 PD
24 W
3105 2933 PD
24 W
3897 872 PD
24 W
2717 1860 PD
24 W
2791 2684 PD
24 W
2721 1876 PD
24 W
2689 1831 PD
24 W
3907 1561 PD
24 W
3237 2323 PD
24 W
3670 1009 PD
24 W
3100 2584 PD
24 W
3513 1357 PD
24 W
3534 1111 PD
24 W
2603 2038 PD
24 W
3016 2513 PD
24 W
3832 1075 PD
24 W
3433 716 PD
24 W
3982 1581 PD
24 W
3734 1392 PD
24 W
2845 2544 PD
24 W
3894 1129 PD
24 W
3224 1611 PD
24 W
3667 978 PD
24 W
1989 1906 PD
24 W
2937 2800 PD
24 W
3643 819 PD
24 W
3083 2543 PD
24 W
3098 2491 PD
24 W
2584 2663 PD
24 W
4255 1463 PD
24 W
2833 3046 PD
24 W
3881 1233 PD
24 W
1929 1911 PD
24 W
3140 2736 PD
24 W
2224 2069 PD
24 W
3980 1913 PD
24 W
2647 1885 PD
24 W
3320 450 PD
24 W
3345 3071 PD
24 W
2797 2681 PD
24 W
3670 640 PD
24 W
3965 1221 PD
24 W
4050 1328 PD
24 W
3541 647 PD
24 W
3914 1268 PD
24 W
2982 2857 PD
24 W
3802 1130 PD
24 W
3911 1645 PD
24 W
3882 1574 PD
24 W
4156 1471 PD
24 W
2262 1983 PD
24 W
3738 1135 PD
24 W
3825 1536 PD
24 W
2987 2926 PD
24 W
3278 2226 PD
24 W
3770 1442 PD
24 W
3890 1394 PD
24 W
3204 2301 PD
24 W
3270 2473 PD
24 W
4031 1394 PD
24 W
3782 1082 PD
24 W
3727 1459 PD
24 W
2246 2101 PD
24 W
3598 971 PD
24 W
1460 2165 PD
24 W
4166 1368 PD
24 W
3091 2103 PD
24 W
3097 2404 PD
24 W
2755 3074 PD
24 W
3159 2169 PD
24 W
2085 2040 PD
24 W
3864 1240 PD
24 W
3133 2552 PD
24 W
2933 2050 PD
24 W
3128 2598 PD
24 W
3611 549 PD
24 W
2940 2996 PD
24 W
4056 1531 PD
24 W
3826 868 PD
24 W
2044 1977 PD
24 W
3061 2435 PD
24 W
3929 1295 PD
24 W
3781 819 PD
24 W
3998 1061 PD
24 W
3127 2826 PD
24 W
2852 2773 PD
24 W
2968 2781 PD
24 W
2975 2462 PD
24 W
3228 2995 PD
24 W
3807 1078 PD
24 W
3811 1106 PD
24 W
3793 1285 PD
24 W
1984 1910 PD
24 W
2857 3006 PD
24 W
3680 1611 PD
24 W
3342 2503 PD
24 W
3739 1205 PD
24 W
2833 2485 PD
24 W
2240 2016 PD
24 W
3776 1213 PD
24 W
3775 1155 PD
24 W
2485 1999 PD
24 W
3797 1299 PD
24 W
2976 2431 PD
24 W
3610 1064 PD
24 W
3077 2881 PD
24 W
4153 1715 PD
24 W
3697 975 PD
24 W
3763 867 PD
24 W
3896 1265 PD
24 W
2460 1881 PD
24 W
3936 1313 PD
24 W
3310 284 PD
24 W
2790 2932 PD
24 W
3437 746 PD
24 W
3160 2231 PD
24 W
2857 2696 PD
24 W
3146 2689 PD
24 W
3719 863 PD
24 W
2509 2031 PD
24 W
3975 1665 PD
24 W
3470 1093 PD
24 W
3671 752 PD
24 W
3244 2232 PD
24 W
3134 2362 PD
24 W
1789 1869 PD
24 W
4003 1565 PD
24 W
2791 3015 PD
24 W
2984 2508 PD
24 W
3919 1111 PD
24 W
3159 1823 PD
24 W
3214 2426 PD
24 W
3617 976 PD
24 W
2719 3075 PD
24 W
2751 2887 PD
24 W
2227 2030 PD
24 W
3016 2729 PD
24 W
2976 2204 PD
24 W
3880 990 PD
24 W
3230 2854 PD
24 W
3127 2267 PD
24 W
3019 2753 PD
24 W
3142 2578 PD
24 W
3171 2759 PD
24 W
3057 2600 PD
24 W
3767 1464 PD
24 W
3329 2093 PD
24 W
3902 1346 PD
24 W
3815 873 PD
24 W
3035 2403 PD
24 W
2947 2720 PD
24 W
2990 2041 PD
24 W
3764 891 PD
gs 657 284 3908 3083 rc
gr


end %%Color Dict

eplot
%%EndObject

epage
end

showpage

%%Trailer
%%EOF
